%!PS-Adobe EPSF-3.0
%%Creator: https://api.qrserver.com (QR Code API, see goQR.me/api for information)
%%Title: qr-code
%%CreationDate: 2019-08-30
%%Pages: 1
%%DocumentData: Clean7Bit
%%LanguageLevel: 2
%%BoundingBox: 0 0 31 31
%%EndComments
%%Page: 1 1
%%BeginPageSetup
%%PageBoundingBox: 0 0 31 31
%%EndPageSetup
1 1 scale
1 1 translate
1 1 1 setrgbcolor
-1 -1 31 31 rectfill
0 0 0 setrgbcolor
newpath
0 0 moveto
1 0 lineto
1 1 lineto
0 1 lineto
0 0 lineto
1 0 moveto
2 0 lineto
2 1 lineto
1 1 lineto
1 0 lineto
2 0 moveto
3 0 lineto
3 1 lineto
2 1 lineto
2 0 lineto
3 0 moveto
4 0 lineto
4 1 lineto
3 1 lineto
3 0 lineto
4 0 moveto
5 0 lineto
5 1 lineto
4 1 lineto
4 0 lineto
5 0 moveto
6 0 lineto
6 1 lineto
5 1 lineto
5 0 lineto
6 0 moveto
7 0 lineto
7 1 lineto
6 1 lineto
6 0 lineto
8 0 moveto
9 0 lineto
9 1 lineto
8 1 lineto
8 0 lineto
9 0 moveto
10 0 lineto
10 1 lineto
9 1 lineto
9 0 lineto
10 0 moveto
11 0 lineto
11 1 lineto
10 1 lineto
10 0 lineto
11 0 moveto
12 0 lineto
12 1 lineto
11 1 lineto
11 0 lineto
12 0 moveto
13 0 lineto
13 1 lineto
12 1 lineto
12 0 lineto
13 0 moveto
14 0 lineto
14 1 lineto
13 1 lineto
13 0 lineto
14 0 moveto
15 0 lineto
15 1 lineto
14 1 lineto
14 0 lineto
15 0 moveto
16 0 lineto
16 1 lineto
15 1 lineto
15 0 lineto
16 0 moveto
17 0 lineto
17 1 lineto
16 1 lineto
16 0 lineto
17 0 moveto
18 0 lineto
18 1 lineto
17 1 lineto
17 0 lineto
21 0 moveto
22 0 lineto
22 1 lineto
21 1 lineto
21 0 lineto
23 0 moveto
24 0 lineto
24 1 lineto
23 1 lineto
23 0 lineto
24 0 moveto
25 0 lineto
25 1 lineto
24 1 lineto
24 0 lineto
26 0 moveto
27 0 lineto
27 1 lineto
26 1 lineto
26 0 lineto
0 1 moveto
1 1 lineto
1 2 lineto
0 2 lineto
0 1 lineto
6 1 moveto
7 1 lineto
7 2 lineto
6 2 lineto
6 1 lineto
8 1 moveto
9 1 lineto
9 2 lineto
8 2 lineto
8 1 lineto
12 1 moveto
13 1 lineto
13 2 lineto
12 2 lineto
12 1 lineto
14 1 moveto
15 1 lineto
15 2 lineto
14 2 lineto
14 1 lineto
15 1 moveto
16 1 lineto
16 2 lineto
15 2 lineto
15 1 lineto
16 1 moveto
17 1 lineto
17 2 lineto
16 2 lineto
16 1 lineto
20 1 moveto
21 1 lineto
21 2 lineto
20 2 lineto
20 1 lineto
21 1 moveto
22 1 lineto
22 2 lineto
21 2 lineto
21 1 lineto
22 1 moveto
23 1 lineto
23 2 lineto
22 2 lineto
22 1 lineto
23 1 moveto
24 1 lineto
24 2 lineto
23 2 lineto
23 1 lineto
25 1 moveto
26 1 lineto
26 2 lineto
25 2 lineto
25 1 lineto
27 1 moveto
28 1 lineto
28 2 lineto
27 2 lineto
27 1 lineto
0 2 moveto
1 2 lineto
1 3 lineto
0 3 lineto
0 2 lineto
2 2 moveto
3 2 lineto
3 3 lineto
2 3 lineto
2 2 lineto
3 2 moveto
4 2 lineto
4 3 lineto
3 3 lineto
3 2 lineto
4 2 moveto
5 2 lineto
5 3 lineto
4 3 lineto
4 2 lineto
6 2 moveto
7 2 lineto
7 3 lineto
6 3 lineto
6 2 lineto
8 2 moveto
9 2 lineto
9 3 lineto
8 3 lineto
8 2 lineto
9 2 moveto
10 2 lineto
10 3 lineto
9 3 lineto
9 2 lineto
10 2 moveto
11 2 lineto
11 3 lineto
10 3 lineto
10 2 lineto
12 2 moveto
13 2 lineto
13 3 lineto
12 3 lineto
12 2 lineto
13 2 moveto
14 2 lineto
14 3 lineto
13 3 lineto
13 2 lineto
15 2 moveto
16 2 lineto
16 3 lineto
15 3 lineto
15 2 lineto
17 2 moveto
18 2 lineto
18 3 lineto
17 3 lineto
17 2 lineto
18 2 moveto
19 2 lineto
19 3 lineto
18 3 lineto
18 2 lineto
19 2 moveto
20 2 lineto
20 3 lineto
19 3 lineto
19 2 lineto
20 2 moveto
21 2 lineto
21 3 lineto
20 3 lineto
20 2 lineto
21 2 moveto
22 2 lineto
22 3 lineto
21 3 lineto
21 2 lineto
22 2 moveto
23 2 lineto
23 3 lineto
22 3 lineto
22 2 lineto
23 2 moveto
24 2 lineto
24 3 lineto
23 3 lineto
23 2 lineto
24 2 moveto
25 2 lineto
25 3 lineto
24 3 lineto
24 2 lineto
25 2 moveto
26 2 lineto
26 3 lineto
25 3 lineto
25 2 lineto
26 2 moveto
27 2 lineto
27 3 lineto
26 3 lineto
26 2 lineto
27 2 moveto
28 2 lineto
28 3 lineto
27 3 lineto
27 2 lineto
0 3 moveto
1 3 lineto
1 4 lineto
0 4 lineto
0 3 lineto
2 3 moveto
3 3 lineto
3 4 lineto
2 4 lineto
2 3 lineto
3 3 moveto
4 3 lineto
4 4 lineto
3 4 lineto
3 3 lineto
4 3 moveto
5 3 lineto
5 4 lineto
4 4 lineto
4 3 lineto
6 3 moveto
7 3 lineto
7 4 lineto
6 4 lineto
6 3 lineto
8 3 moveto
9 3 lineto
9 4 lineto
8 4 lineto
8 3 lineto
10 3 moveto
11 3 lineto
11 4 lineto
10 4 lineto
10 3 lineto
11 3 moveto
12 3 lineto
12 4 lineto
11 4 lineto
11 3 lineto
19 3 moveto
20 3 lineto
20 4 lineto
19 4 lineto
19 3 lineto
25 3 moveto
26 3 lineto
26 4 lineto
25 4 lineto
25 3 lineto
26 3 moveto
27 3 lineto
27 4 lineto
26 4 lineto
26 3 lineto
27 3 moveto
28 3 lineto
28 4 lineto
27 4 lineto
27 3 lineto
28 3 moveto
29 3 lineto
29 4 lineto
28 4 lineto
28 3 lineto
0 4 moveto
1 4 lineto
1 5 lineto
0 5 lineto
0 4 lineto
2 4 moveto
3 4 lineto
3 5 lineto
2 5 lineto
2 4 lineto
3 4 moveto
4 4 lineto
4 5 lineto
3 5 lineto
3 4 lineto
4 4 moveto
5 4 lineto
5 5 lineto
4 5 lineto
4 4 lineto
6 4 moveto
7 4 lineto
7 5 lineto
6 5 lineto
6 4 lineto
8 4 moveto
9 4 lineto
9 5 lineto
8 5 lineto
8 4 lineto
9 4 moveto
10 4 lineto
10 5 lineto
9 5 lineto
9 4 lineto
12 4 moveto
13 4 lineto
13 5 lineto
12 5 lineto
12 4 lineto
13 4 moveto
14 4 lineto
14 5 lineto
13 5 lineto
13 4 lineto
14 4 moveto
15 4 lineto
15 5 lineto
14 5 lineto
14 4 lineto
17 4 moveto
18 4 lineto
18 5 lineto
17 5 lineto
17 4 lineto
20 4 moveto
21 4 lineto
21 5 lineto
20 5 lineto
20 4 lineto
21 4 moveto
22 4 lineto
22 5 lineto
21 5 lineto
21 4 lineto
22 4 moveto
23 4 lineto
23 5 lineto
22 5 lineto
22 4 lineto
23 4 moveto
24 4 lineto
24 5 lineto
23 5 lineto
23 4 lineto
24 4 moveto
25 4 lineto
25 5 lineto
24 5 lineto
24 4 lineto
26 4 moveto
27 4 lineto
27 5 lineto
26 5 lineto
26 4 lineto
28 4 moveto
29 4 lineto
29 5 lineto
28 5 lineto
28 4 lineto
0 5 moveto
1 5 lineto
1 6 lineto
0 6 lineto
0 5 lineto
6 5 moveto
7 5 lineto
7 6 lineto
6 6 lineto
6 5 lineto
14 5 moveto
15 5 lineto
15 6 lineto
14 6 lineto
14 5 lineto
16 5 moveto
17 5 lineto
17 6 lineto
16 6 lineto
16 5 lineto
18 5 moveto
19 5 lineto
19 6 lineto
18 6 lineto
18 5 lineto
19 5 moveto
20 5 lineto
20 6 lineto
19 6 lineto
19 5 lineto
20 5 moveto
21 5 lineto
21 6 lineto
20 6 lineto
20 5 lineto
24 5 moveto
25 5 lineto
25 6 lineto
24 6 lineto
24 5 lineto
27 5 moveto
28 5 lineto
28 6 lineto
27 6 lineto
27 5 lineto
28 5 moveto
29 5 lineto
29 6 lineto
28 6 lineto
28 5 lineto
0 6 moveto
1 6 lineto
1 7 lineto
0 7 lineto
0 6 lineto
1 6 moveto
2 6 lineto
2 7 lineto
1 7 lineto
1 6 lineto
2 6 moveto
3 6 lineto
3 7 lineto
2 7 lineto
2 6 lineto
3 6 moveto
4 6 lineto
4 7 lineto
3 7 lineto
3 6 lineto
4 6 moveto
5 6 lineto
5 7 lineto
4 7 lineto
4 6 lineto
5 6 moveto
6 6 lineto
6 7 lineto
5 7 lineto
5 6 lineto
6 6 moveto
7 6 lineto
7 7 lineto
6 7 lineto
6 6 lineto
8 6 moveto
9 6 lineto
9 7 lineto
8 7 lineto
8 6 lineto
9 6 moveto
10 6 lineto
10 7 lineto
9 7 lineto
9 6 lineto
15 6 moveto
16 6 lineto
16 7 lineto
15 7 lineto
15 6 lineto
16 6 moveto
17 6 lineto
17 7 lineto
16 7 lineto
16 6 lineto
17 6 moveto
18 6 lineto
18 7 lineto
17 7 lineto
17 6 lineto
18 6 moveto
19 6 lineto
19 7 lineto
18 7 lineto
18 6 lineto
19 6 moveto
20 6 lineto
20 7 lineto
19 7 lineto
19 6 lineto
20 6 moveto
21 6 lineto
21 7 lineto
20 7 lineto
20 6 lineto
22 6 moveto
23 6 lineto
23 7 lineto
22 7 lineto
22 6 lineto
24 6 moveto
25 6 lineto
25 7 lineto
24 7 lineto
24 6 lineto
25 6 moveto
26 6 lineto
26 7 lineto
25 7 lineto
25 6 lineto
26 6 moveto
27 6 lineto
27 7 lineto
26 7 lineto
26 6 lineto
8 7 moveto
9 7 lineto
9 8 lineto
8 8 lineto
8 7 lineto
9 7 moveto
10 7 lineto
10 8 lineto
9 8 lineto
9 7 lineto
10 7 moveto
11 7 lineto
11 8 lineto
10 8 lineto
10 7 lineto
11 7 moveto
12 7 lineto
12 8 lineto
11 8 lineto
11 7 lineto
17 7 moveto
18 7 lineto
18 8 lineto
17 8 lineto
17 7 lineto
18 7 moveto
19 7 lineto
19 8 lineto
18 8 lineto
18 7 lineto
20 7 moveto
21 7 lineto
21 8 lineto
20 8 lineto
20 7 lineto
24 7 moveto
25 7 lineto
25 8 lineto
24 8 lineto
24 7 lineto
25 7 moveto
26 7 lineto
26 8 lineto
25 8 lineto
25 7 lineto
26 7 moveto
27 7 lineto
27 8 lineto
26 8 lineto
26 7 lineto
27 7 moveto
28 7 lineto
28 8 lineto
27 8 lineto
27 7 lineto
28 7 moveto
29 7 lineto
29 8 lineto
28 8 lineto
28 7 lineto
0 8 moveto
1 8 lineto
1 9 lineto
0 9 lineto
0 8 lineto
2 8 moveto
3 8 lineto
3 9 lineto
2 9 lineto
2 8 lineto
3 8 moveto
4 8 lineto
4 9 lineto
3 9 lineto
3 8 lineto
6 8 moveto
7 8 lineto
7 9 lineto
6 9 lineto
6 8 lineto
7 8 moveto
8 8 lineto
8 9 lineto
7 9 lineto
7 8 lineto
9 8 moveto
10 8 lineto
10 9 lineto
9 9 lineto
9 8 lineto
11 8 moveto
12 8 lineto
12 9 lineto
11 9 lineto
11 8 lineto
12 8 moveto
13 8 lineto
13 9 lineto
12 9 lineto
12 8 lineto
13 8 moveto
14 8 lineto
14 9 lineto
13 9 lineto
13 8 lineto
14 8 moveto
15 8 lineto
15 9 lineto
14 9 lineto
14 8 lineto
15 8 moveto
16 8 lineto
16 9 lineto
15 9 lineto
15 8 lineto
16 8 moveto
17 8 lineto
17 9 lineto
16 9 lineto
16 8 lineto
17 8 moveto
18 8 lineto
18 9 lineto
17 9 lineto
17 8 lineto
20 8 moveto
21 8 lineto
21 9 lineto
20 9 lineto
20 8 lineto
21 8 moveto
22 8 lineto
22 9 lineto
21 9 lineto
21 8 lineto
22 8 moveto
23 8 lineto
23 9 lineto
22 9 lineto
22 8 lineto
23 8 moveto
24 8 lineto
24 9 lineto
23 9 lineto
23 8 lineto
24 8 moveto
25 8 lineto
25 9 lineto
24 9 lineto
24 8 lineto
26 8 moveto
27 8 lineto
27 9 lineto
26 9 lineto
26 8 lineto
27 8 moveto
28 8 lineto
28 9 lineto
27 9 lineto
27 8 lineto
28 8 moveto
29 8 lineto
29 9 lineto
28 9 lineto
28 8 lineto
0 9 moveto
1 9 lineto
1 10 lineto
0 10 lineto
0 9 lineto
4 9 moveto
5 9 lineto
5 10 lineto
4 10 lineto
4 9 lineto
9 9 moveto
10 9 lineto
10 10 lineto
9 10 lineto
9 9 lineto
11 9 moveto
12 9 lineto
12 10 lineto
11 10 lineto
11 9 lineto
14 9 moveto
15 9 lineto
15 10 lineto
14 10 lineto
14 9 lineto
21 9 moveto
22 9 lineto
22 10 lineto
21 10 lineto
21 9 lineto
27 9 moveto
28 9 lineto
28 10 lineto
27 10 lineto
27 9 lineto
0 10 moveto
1 10 lineto
1 11 lineto
0 11 lineto
0 10 lineto
2 10 moveto
3 10 lineto
3 11 lineto
2 11 lineto
2 10 lineto
4 10 moveto
5 10 lineto
5 11 lineto
4 11 lineto
4 10 lineto
5 10 moveto
6 10 lineto
6 11 lineto
5 11 lineto
5 10 lineto
6 10 moveto
7 10 lineto
7 11 lineto
6 11 lineto
6 10 lineto
8 10 moveto
9 10 lineto
9 11 lineto
8 11 lineto
8 10 lineto
9 10 moveto
10 10 lineto
10 11 lineto
9 11 lineto
9 10 lineto
12 10 moveto
13 10 lineto
13 11 lineto
12 11 lineto
12 10 lineto
15 10 moveto
16 10 lineto
16 11 lineto
15 11 lineto
15 10 lineto
17 10 moveto
18 10 lineto
18 11 lineto
17 11 lineto
17 10 lineto
20 10 moveto
21 10 lineto
21 11 lineto
20 11 lineto
20 10 lineto
23 10 moveto
24 10 lineto
24 11 lineto
23 11 lineto
23 10 lineto
24 10 moveto
25 10 lineto
25 11 lineto
24 11 lineto
24 10 lineto
26 10 moveto
27 10 lineto
27 11 lineto
26 11 lineto
26 10 lineto
0 11 moveto
1 11 lineto
1 12 lineto
0 12 lineto
0 11 lineto
1 11 moveto
2 11 lineto
2 12 lineto
1 12 lineto
1 11 lineto
2 11 moveto
3 11 lineto
3 12 lineto
2 12 lineto
2 11 lineto
3 11 moveto
4 11 lineto
4 12 lineto
3 12 lineto
3 11 lineto
4 11 moveto
5 11 lineto
5 12 lineto
4 12 lineto
4 11 lineto
5 11 moveto
6 11 lineto
6 12 lineto
5 12 lineto
5 11 lineto
9 11 moveto
10 11 lineto
10 12 lineto
9 12 lineto
9 11 lineto
12 11 moveto
13 11 lineto
13 12 lineto
12 12 lineto
12 11 lineto
17 11 moveto
18 11 lineto
18 12 lineto
17 12 lineto
17 11 lineto
18 11 moveto
19 11 lineto
19 12 lineto
18 12 lineto
18 11 lineto
19 11 moveto
20 11 lineto
20 12 lineto
19 12 lineto
19 11 lineto
20 11 moveto
21 11 lineto
21 12 lineto
20 12 lineto
20 11 lineto
22 11 moveto
23 11 lineto
23 12 lineto
22 12 lineto
22 11 lineto
23 11 moveto
24 11 lineto
24 12 lineto
23 12 lineto
23 11 lineto
24 11 moveto
25 11 lineto
25 12 lineto
24 12 lineto
24 11 lineto
26 11 moveto
27 11 lineto
27 12 lineto
26 12 lineto
26 11 lineto
28 11 moveto
29 11 lineto
29 12 lineto
28 12 lineto
28 11 lineto
0 12 moveto
1 12 lineto
1 13 lineto
0 13 lineto
0 12 lineto
1 12 moveto
2 12 lineto
2 13 lineto
1 13 lineto
1 12 lineto
2 12 moveto
3 12 lineto
3 13 lineto
2 13 lineto
2 12 lineto
4 12 moveto
5 12 lineto
5 13 lineto
4 13 lineto
4 12 lineto
6 12 moveto
7 12 lineto
7 13 lineto
6 13 lineto
6 12 lineto
7 12 moveto
8 12 lineto
8 13 lineto
7 13 lineto
7 12 lineto
9 12 moveto
10 12 lineto
10 13 lineto
9 13 lineto
9 12 lineto
10 12 moveto
11 12 lineto
11 13 lineto
10 13 lineto
10 12 lineto
11 12 moveto
12 12 lineto
12 13 lineto
11 13 lineto
11 12 lineto
12 12 moveto
13 12 lineto
13 13 lineto
12 13 lineto
12 12 lineto
13 12 moveto
14 12 lineto
14 13 lineto
13 13 lineto
13 12 lineto
14 12 moveto
15 12 lineto
15 13 lineto
14 13 lineto
14 12 lineto
15 12 moveto
16 12 lineto
16 13 lineto
15 13 lineto
15 12 lineto
16 12 moveto
17 12 lineto
17 13 lineto
16 13 lineto
16 12 lineto
17 12 moveto
18 12 lineto
18 13 lineto
17 13 lineto
17 12 lineto
18 12 moveto
19 12 lineto
19 13 lineto
18 13 lineto
18 12 lineto
23 12 moveto
24 12 lineto
24 13 lineto
23 13 lineto
23 12 lineto
25 12 moveto
26 12 lineto
26 13 lineto
25 13 lineto
25 12 lineto
26 12 moveto
27 12 lineto
27 13 lineto
26 13 lineto
26 12 lineto
0 13 moveto
1 13 lineto
1 14 lineto
0 14 lineto
0 13 lineto
1 13 moveto
2 13 lineto
2 14 lineto
1 14 lineto
1 13 lineto
3 13 moveto
4 13 lineto
4 14 lineto
3 14 lineto
3 13 lineto
11 13 moveto
12 13 lineto
12 14 lineto
11 14 lineto
11 13 lineto
14 13 moveto
15 13 lineto
15 14 lineto
14 14 lineto
14 13 lineto
15 13 moveto
16 13 lineto
16 14 lineto
15 14 lineto
15 13 lineto
22 13 moveto
23 13 lineto
23 14 lineto
22 14 lineto
22 13 lineto
23 13 moveto
24 13 lineto
24 14 lineto
23 14 lineto
23 13 lineto
24 13 moveto
25 13 lineto
25 14 lineto
24 14 lineto
24 13 lineto
27 13 moveto
28 13 lineto
28 14 lineto
27 14 lineto
27 13 lineto
0 14 moveto
1 14 lineto
1 15 lineto
0 15 lineto
0 14 lineto
1 14 moveto
2 14 lineto
2 15 lineto
1 15 lineto
1 14 lineto
6 14 moveto
7 14 lineto
7 15 lineto
6 15 lineto
6 14 lineto
11 14 moveto
12 14 lineto
12 15 lineto
11 15 lineto
11 14 lineto
12 14 moveto
13 14 lineto
13 15 lineto
12 15 lineto
12 14 lineto
13 14 moveto
14 14 lineto
14 15 lineto
13 15 lineto
13 14 lineto
14 14 moveto
15 14 lineto
15 15 lineto
14 15 lineto
14 14 lineto
15 14 moveto
16 14 lineto
16 15 lineto
15 15 lineto
15 14 lineto
20 14 moveto
21 14 lineto
21 15 lineto
20 15 lineto
20 14 lineto
24 14 moveto
25 14 lineto
25 15 lineto
24 15 lineto
24 14 lineto
25 14 moveto
26 14 lineto
26 15 lineto
25 15 lineto
25 14 lineto
26 14 moveto
27 14 lineto
27 15 lineto
26 15 lineto
26 14 lineto
0 15 moveto
1 15 lineto
1 16 lineto
0 16 lineto
0 15 lineto
1 15 moveto
2 15 lineto
2 16 lineto
1 16 lineto
1 15 lineto
2 15 moveto
3 15 lineto
3 16 lineto
2 16 lineto
2 15 lineto
5 15 moveto
6 15 lineto
6 16 lineto
5 16 lineto
5 15 lineto
7 15 moveto
8 15 lineto
8 16 lineto
7 16 lineto
7 15 lineto
8 15 moveto
9 15 lineto
9 16 lineto
8 16 lineto
8 15 lineto
9 15 moveto
10 15 lineto
10 16 lineto
9 16 lineto
9 15 lineto
13 15 moveto
14 15 lineto
14 16 lineto
13 16 lineto
13 15 lineto
14 15 moveto
15 15 lineto
15 16 lineto
14 16 lineto
14 15 lineto
18 15 moveto
19 15 lineto
19 16 lineto
18 16 lineto
18 15 lineto
19 15 moveto
20 15 lineto
20 16 lineto
19 16 lineto
19 15 lineto
20 15 moveto
21 15 lineto
21 16 lineto
20 16 lineto
20 15 lineto
22 15 moveto
23 15 lineto
23 16 lineto
22 16 lineto
22 15 lineto
24 15 moveto
25 15 lineto
25 16 lineto
24 16 lineto
24 15 lineto
28 15 moveto
29 15 lineto
29 16 lineto
28 16 lineto
28 15 lineto
1 16 moveto
2 16 lineto
2 17 lineto
1 17 lineto
1 16 lineto
2 16 moveto
3 16 lineto
3 17 lineto
2 17 lineto
2 16 lineto
5 16 moveto
6 16 lineto
6 17 lineto
5 17 lineto
5 16 lineto
6 16 moveto
7 16 lineto
7 17 lineto
6 17 lineto
6 16 lineto
7 16 moveto
8 16 lineto
8 17 lineto
7 17 lineto
7 16 lineto
9 16 moveto
10 16 lineto
10 17 lineto
9 17 lineto
9 16 lineto
10 16 moveto
11 16 lineto
11 17 lineto
10 17 lineto
10 16 lineto
12 16 moveto
13 16 lineto
13 17 lineto
12 17 lineto
12 16 lineto
14 16 moveto
15 16 lineto
15 17 lineto
14 17 lineto
14 16 lineto
15 16 moveto
16 16 lineto
16 17 lineto
15 17 lineto
15 16 lineto
16 16 moveto
17 16 lineto
17 17 lineto
16 17 lineto
16 16 lineto
17 16 moveto
18 16 lineto
18 17 lineto
17 17 lineto
17 16 lineto
25 16 moveto
26 16 lineto
26 17 lineto
25 17 lineto
25 16 lineto
26 16 moveto
27 16 lineto
27 17 lineto
26 17 lineto
26 16 lineto
2 17 moveto
3 17 lineto
3 18 lineto
2 18 lineto
2 17 lineto
3 17 moveto
4 17 lineto
4 18 lineto
3 18 lineto
3 17 lineto
7 17 moveto
8 17 lineto
8 18 lineto
7 18 lineto
7 17 lineto
12 17 moveto
13 17 lineto
13 18 lineto
12 18 lineto
12 17 lineto
14 17 moveto
15 17 lineto
15 18 lineto
14 18 lineto
14 17 lineto
15 17 moveto
16 17 lineto
16 18 lineto
15 18 lineto
15 17 lineto
18 17 moveto
19 17 lineto
19 18 lineto
18 18 lineto
18 17 lineto
19 17 moveto
20 17 lineto
20 18 lineto
19 18 lineto
19 17 lineto
21 17 moveto
22 17 lineto
22 18 lineto
21 18 lineto
21 17 lineto
22 17 moveto
23 17 lineto
23 18 lineto
22 18 lineto
22 17 lineto
23 17 moveto
24 17 lineto
24 18 lineto
23 18 lineto
23 17 lineto
25 17 moveto
26 17 lineto
26 18 lineto
25 18 lineto
25 17 lineto
27 17 moveto
28 17 lineto
28 18 lineto
27 18 lineto
27 17 lineto
0 18 moveto
1 18 lineto
1 19 lineto
0 19 lineto
0 18 lineto
1 18 moveto
2 18 lineto
2 19 lineto
1 19 lineto
1 18 lineto
3 18 moveto
4 18 lineto
4 19 lineto
3 19 lineto
3 18 lineto
5 18 moveto
6 18 lineto
6 19 lineto
5 19 lineto
5 18 lineto
6 18 moveto
7 18 lineto
7 19 lineto
6 19 lineto
6 18 lineto
8 18 moveto
9 18 lineto
9 19 lineto
8 19 lineto
8 18 lineto
10 18 moveto
11 18 lineto
11 19 lineto
10 19 lineto
10 18 lineto
15 18 moveto
16 18 lineto
16 19 lineto
15 19 lineto
15 18 lineto
16 18 moveto
17 18 lineto
17 19 lineto
16 19 lineto
16 18 lineto
20 18 moveto
21 18 lineto
21 19 lineto
20 19 lineto
20 18 lineto
21 18 moveto
22 18 lineto
22 19 lineto
21 19 lineto
21 18 lineto
2 19 moveto
3 19 lineto
3 20 lineto
2 20 lineto
2 19 lineto
7 19 moveto
8 19 lineto
8 20 lineto
7 20 lineto
7 19 lineto
10 19 moveto
11 19 lineto
11 20 lineto
10 20 lineto
10 19 lineto
12 19 moveto
13 19 lineto
13 20 lineto
12 20 lineto
12 19 lineto
18 19 moveto
19 19 lineto
19 20 lineto
18 20 lineto
18 19 lineto
19 19 moveto
20 19 lineto
20 20 lineto
19 20 lineto
19 19 lineto
20 19 moveto
21 19 lineto
21 20 lineto
20 20 lineto
20 19 lineto
22 19 moveto
23 19 lineto
23 20 lineto
22 20 lineto
22 19 lineto
23 19 moveto
24 19 lineto
24 20 lineto
23 20 lineto
23 19 lineto
24 19 moveto
25 19 lineto
25 20 lineto
24 20 lineto
24 19 lineto
28 19 moveto
29 19 lineto
29 20 lineto
28 20 lineto
28 19 lineto
0 20 moveto
1 20 lineto
1 21 lineto
0 21 lineto
0 20 lineto
1 20 moveto
2 20 lineto
2 21 lineto
1 21 lineto
1 20 lineto
2 20 moveto
3 20 lineto
3 21 lineto
2 21 lineto
2 20 lineto
3 20 moveto
4 20 lineto
4 21 lineto
3 21 lineto
3 20 lineto
4 20 moveto
5 20 lineto
5 21 lineto
4 21 lineto
4 20 lineto
6 20 moveto
7 20 lineto
7 21 lineto
6 21 lineto
6 20 lineto
7 20 moveto
8 20 lineto
8 21 lineto
7 21 lineto
7 20 lineto
8 20 moveto
9 20 lineto
9 21 lineto
8 21 lineto
8 20 lineto
9 20 moveto
10 20 lineto
10 21 lineto
9 21 lineto
9 20 lineto
11 20 moveto
12 20 lineto
12 21 lineto
11 21 lineto
11 20 lineto
13 20 moveto
14 20 lineto
14 21 lineto
13 21 lineto
13 20 lineto
14 20 moveto
15 20 lineto
15 21 lineto
14 21 lineto
14 20 lineto
16 20 moveto
17 20 lineto
17 21 lineto
16 21 lineto
16 20 lineto
17 20 moveto
18 20 lineto
18 21 lineto
17 21 lineto
17 20 lineto
19 20 moveto
20 20 lineto
20 21 lineto
19 21 lineto
19 20 lineto
21 20 moveto
22 20 lineto
22 21 lineto
21 21 lineto
21 20 lineto
23 20 moveto
24 20 lineto
24 21 lineto
23 21 lineto
23 20 lineto
25 20 moveto
26 20 lineto
26 21 lineto
25 21 lineto
25 20 lineto
27 20 moveto
28 20 lineto
28 21 lineto
27 21 lineto
27 20 lineto
9 21 moveto
10 21 lineto
10 22 lineto
9 22 lineto
9 21 lineto
10 21 moveto
11 21 lineto
11 22 lineto
10 22 lineto
10 21 lineto
11 21 moveto
12 21 lineto
12 22 lineto
11 22 lineto
11 21 lineto
14 21 moveto
15 21 lineto
15 22 lineto
14 22 lineto
14 21 lineto
15 21 moveto
16 21 lineto
16 22 lineto
15 22 lineto
15 21 lineto
18 21 moveto
19 21 lineto
19 22 lineto
18 22 lineto
18 21 lineto
0 22 moveto
1 22 lineto
1 23 lineto
0 23 lineto
0 22 lineto
1 22 moveto
2 22 lineto
2 23 lineto
1 23 lineto
1 22 lineto
2 22 moveto
3 22 lineto
3 23 lineto
2 23 lineto
2 22 lineto
3 22 moveto
4 22 lineto
4 23 lineto
3 23 lineto
3 22 lineto
4 22 moveto
5 22 lineto
5 23 lineto
4 23 lineto
4 22 lineto
5 22 moveto
6 22 lineto
6 23 lineto
5 23 lineto
5 22 lineto
6 22 moveto
7 22 lineto
7 23 lineto
6 23 lineto
6 22 lineto
8 22 moveto
9 22 lineto
9 23 lineto
8 23 lineto
8 22 lineto
10 22 moveto
11 22 lineto
11 23 lineto
10 23 lineto
10 22 lineto
12 22 moveto
13 22 lineto
13 23 lineto
12 23 lineto
12 22 lineto
14 22 moveto
15 22 lineto
15 23 lineto
14 23 lineto
14 22 lineto
16 22 moveto
17 22 lineto
17 23 lineto
16 23 lineto
16 22 lineto
18 22 moveto
19 22 lineto
19 23 lineto
18 23 lineto
18 22 lineto
20 22 moveto
21 22 lineto
21 23 lineto
20 23 lineto
20 22 lineto
22 22 moveto
23 22 lineto
23 23 lineto
22 23 lineto
22 22 lineto
23 22 moveto
24 22 lineto
24 23 lineto
23 23 lineto
23 22 lineto
24 22 moveto
25 22 lineto
25 23 lineto
24 23 lineto
24 22 lineto
25 22 moveto
26 22 lineto
26 23 lineto
25 23 lineto
25 22 lineto
26 22 moveto
27 22 lineto
27 23 lineto
26 23 lineto
26 22 lineto
27 22 moveto
28 22 lineto
28 23 lineto
27 23 lineto
27 22 lineto
28 22 moveto
29 22 lineto
29 23 lineto
28 23 lineto
28 22 lineto
0 23 moveto
1 23 lineto
1 24 lineto
0 24 lineto
0 23 lineto
6 23 moveto
7 23 lineto
7 24 lineto
6 24 lineto
6 23 lineto
8 23 moveto
9 23 lineto
9 24 lineto
8 24 lineto
8 23 lineto
9 23 moveto
10 23 lineto
10 24 lineto
9 24 lineto
9 23 lineto
11 23 moveto
12 23 lineto
12 24 lineto
11 24 lineto
11 23 lineto
12 23 moveto
13 23 lineto
13 24 lineto
12 24 lineto
12 23 lineto
13 23 moveto
14 23 lineto
14 24 lineto
13 24 lineto
13 23 lineto
15 23 moveto
16 23 lineto
16 24 lineto
15 24 lineto
15 23 lineto
16 23 moveto
17 23 lineto
17 24 lineto
16 24 lineto
16 23 lineto
17 23 moveto
18 23 lineto
18 24 lineto
17 24 lineto
17 23 lineto
22 23 moveto
23 23 lineto
23 24 lineto
22 24 lineto
22 23 lineto
28 23 moveto
29 23 lineto
29 24 lineto
28 24 lineto
28 23 lineto
0 24 moveto
1 24 lineto
1 25 lineto
0 25 lineto
0 24 lineto
2 24 moveto
3 24 lineto
3 25 lineto
2 25 lineto
2 24 lineto
3 24 moveto
4 24 lineto
4 25 lineto
3 25 lineto
3 24 lineto
4 24 moveto
5 24 lineto
5 25 lineto
4 25 lineto
4 24 lineto
6 24 moveto
7 24 lineto
7 25 lineto
6 25 lineto
6 24 lineto
9 24 moveto
10 24 lineto
10 25 lineto
9 25 lineto
9 24 lineto
15 24 moveto
16 24 lineto
16 25 lineto
15 25 lineto
15 24 lineto
16 24 moveto
17 24 lineto
17 25 lineto
16 25 lineto
16 24 lineto
17 24 moveto
18 24 lineto
18 25 lineto
17 25 lineto
17 24 lineto
18 24 moveto
19 24 lineto
19 25 lineto
18 25 lineto
18 24 lineto
19 24 moveto
20 24 lineto
20 25 lineto
19 25 lineto
19 24 lineto
20 24 moveto
21 24 lineto
21 25 lineto
20 25 lineto
20 24 lineto
22 24 moveto
23 24 lineto
23 25 lineto
22 25 lineto
22 24 lineto
24 24 moveto
25 24 lineto
25 25 lineto
24 25 lineto
24 24 lineto
25 24 moveto
26 24 lineto
26 25 lineto
25 25 lineto
25 24 lineto
26 24 moveto
27 24 lineto
27 25 lineto
26 25 lineto
26 24 lineto
28 24 moveto
29 24 lineto
29 25 lineto
28 25 lineto
28 24 lineto
0 25 moveto
1 25 lineto
1 26 lineto
0 26 lineto
0 25 lineto
2 25 moveto
3 25 lineto
3 26 lineto
2 26 lineto
2 25 lineto
3 25 moveto
4 25 lineto
4 26 lineto
3 26 lineto
3 25 lineto
4 25 moveto
5 25 lineto
5 26 lineto
4 26 lineto
4 25 lineto
6 25 moveto
7 25 lineto
7 26 lineto
6 26 lineto
6 25 lineto
8 25 moveto
9 25 lineto
9 26 lineto
8 26 lineto
8 25 lineto
9 25 moveto
10 25 lineto
10 26 lineto
9 26 lineto
9 25 lineto
10 25 moveto
11 25 lineto
11 26 lineto
10 26 lineto
10 25 lineto
12 25 moveto
13 25 lineto
13 26 lineto
12 26 lineto
12 25 lineto
13 25 moveto
14 25 lineto
14 26 lineto
13 26 lineto
13 25 lineto
14 25 moveto
15 25 lineto
15 26 lineto
14 26 lineto
14 25 lineto
16 25 moveto
17 25 lineto
17 26 lineto
16 26 lineto
16 25 lineto
17 25 moveto
18 25 lineto
18 26 lineto
17 26 lineto
17 25 lineto
18 25 moveto
19 25 lineto
19 26 lineto
18 26 lineto
18 25 lineto
22 25 moveto
23 25 lineto
23 26 lineto
22 26 lineto
22 25 lineto
24 25 moveto
25 25 lineto
25 26 lineto
24 26 lineto
24 25 lineto
25 25 moveto
26 25 lineto
26 26 lineto
25 26 lineto
25 25 lineto
26 25 moveto
27 25 lineto
27 26 lineto
26 26 lineto
26 25 lineto
28 25 moveto
29 25 lineto
29 26 lineto
28 26 lineto
28 25 lineto
0 26 moveto
1 26 lineto
1 27 lineto
0 27 lineto
0 26 lineto
2 26 moveto
3 26 lineto
3 27 lineto
2 27 lineto
2 26 lineto
3 26 moveto
4 26 lineto
4 27 lineto
3 27 lineto
3 26 lineto
4 26 moveto
5 26 lineto
5 27 lineto
4 27 lineto
4 26 lineto
6 26 moveto
7 26 lineto
7 27 lineto
6 27 lineto
6 26 lineto
12 26 moveto
13 26 lineto
13 27 lineto
12 27 lineto
12 26 lineto
14 26 moveto
15 26 lineto
15 27 lineto
14 27 lineto
14 26 lineto
16 26 moveto
17 26 lineto
17 27 lineto
16 27 lineto
16 26 lineto
18 26 moveto
19 26 lineto
19 27 lineto
18 27 lineto
18 26 lineto
20 26 moveto
21 26 lineto
21 27 lineto
20 27 lineto
20 26 lineto
22 26 moveto
23 26 lineto
23 27 lineto
22 27 lineto
22 26 lineto
24 26 moveto
25 26 lineto
25 27 lineto
24 27 lineto
24 26 lineto
25 26 moveto
26 26 lineto
26 27 lineto
25 27 lineto
25 26 lineto
26 26 moveto
27 26 lineto
27 27 lineto
26 27 lineto
26 26 lineto
28 26 moveto
29 26 lineto
29 27 lineto
28 27 lineto
28 26 lineto
0 27 moveto
1 27 lineto
1 28 lineto
0 28 lineto
0 27 lineto
6 27 moveto
7 27 lineto
7 28 lineto
6 28 lineto
6 27 lineto
8 27 moveto
9 27 lineto
9 28 lineto
8 28 lineto
8 27 lineto
10 27 moveto
11 27 lineto
11 28 lineto
10 28 lineto
10 27 lineto
15 27 moveto
16 27 lineto
16 28 lineto
15 28 lineto
15 27 lineto
16 27 moveto
17 27 lineto
17 28 lineto
16 28 lineto
16 27 lineto
17 27 moveto
18 27 lineto
18 28 lineto
17 28 lineto
17 27 lineto
20 27 moveto
21 27 lineto
21 28 lineto
20 28 lineto
20 27 lineto
22 27 moveto
23 27 lineto
23 28 lineto
22 28 lineto
22 27 lineto
28 27 moveto
29 27 lineto
29 28 lineto
28 28 lineto
28 27 lineto
0 28 moveto
1 28 lineto
1 29 lineto
0 29 lineto
0 28 lineto
1 28 moveto
2 28 lineto
2 29 lineto
1 29 lineto
1 28 lineto
2 28 moveto
3 28 lineto
3 29 lineto
2 29 lineto
2 28 lineto
3 28 moveto
4 28 lineto
4 29 lineto
3 29 lineto
3 28 lineto
4 28 moveto
5 28 lineto
5 29 lineto
4 29 lineto
4 28 lineto
5 28 moveto
6 28 lineto
6 29 lineto
5 29 lineto
5 28 lineto
6 28 moveto
7 28 lineto
7 29 lineto
6 29 lineto
6 28 lineto
10 28 moveto
11 28 lineto
11 29 lineto
10 29 lineto
10 28 lineto
12 28 moveto
13 28 lineto
13 29 lineto
12 29 lineto
12 28 lineto
13 28 moveto
14 28 lineto
14 29 lineto
13 29 lineto
13 28 lineto
16 28 moveto
17 28 lineto
17 29 lineto
16 29 lineto
16 28 lineto
17 28 moveto
18 28 lineto
18 29 lineto
17 29 lineto
17 28 lineto
18 28 moveto
19 28 lineto
19 29 lineto
18 29 lineto
18 28 lineto
19 28 moveto
20 28 lineto
20 29 lineto
19 29 lineto
19 28 lineto
20 28 moveto
21 28 lineto
21 29 lineto
20 29 lineto
20 28 lineto
22 28 moveto
23 28 lineto
23 29 lineto
22 29 lineto
22 28 lineto
23 28 moveto
24 28 lineto
24 29 lineto
23 29 lineto
23 28 lineto
24 28 moveto
25 28 lineto
25 29 lineto
24 29 lineto
24 28 lineto
25 28 moveto
26 28 lineto
26 29 lineto
25 29 lineto
25 28 lineto
26 28 moveto
27 28 lineto
27 29 lineto
26 29 lineto
26 28 lineto
27 28 moveto
28 28 lineto
28 29 lineto
27 29 lineto
27 28 lineto
28 28 moveto
29 28 lineto
29 29 lineto
28 29 lineto
28 28 lineto
closepath
fill
%%EOF
