%!PS-Adobe EPSF-3.0
%%Creator: https://api.qrserver.com (QR Code API, see goQR.me/api for information)
%%Title: qr-code
%%CreationDate: 2019-08-30
%%Pages: 1
%%DocumentData: Clean7Bit
%%LanguageLevel: 2
%%BoundingBox: 0 0 39 39
%%EndComments
%%Page: 1 1
%%BeginPageSetup
%%PageBoundingBox: 0 0 39 39
%%EndPageSetup
1 1 scale
1 1 translate
1 1 1 setrgbcolor
-1 -1 39 39 rectfill
0 0 0 setrgbcolor
newpath
0 0 moveto
1 0 lineto
1 1 lineto
0 1 lineto
0 0 lineto
1 0 moveto
2 0 lineto
2 1 lineto
1 1 lineto
1 0 lineto
2 0 moveto
3 0 lineto
3 1 lineto
2 1 lineto
2 0 lineto
3 0 moveto
4 0 lineto
4 1 lineto
3 1 lineto
3 0 lineto
4 0 moveto
5 0 lineto
5 1 lineto
4 1 lineto
4 0 lineto
5 0 moveto
6 0 lineto
6 1 lineto
5 1 lineto
5 0 lineto
6 0 moveto
7 0 lineto
7 1 lineto
6 1 lineto
6 0 lineto
8 0 moveto
9 0 lineto
9 1 lineto
8 1 lineto
8 0 lineto
9 0 moveto
10 0 lineto
10 1 lineto
9 1 lineto
9 0 lineto
10 0 moveto
11 0 lineto
11 1 lineto
10 1 lineto
10 0 lineto
12 0 moveto
13 0 lineto
13 1 lineto
12 1 lineto
12 0 lineto
14 0 moveto
15 0 lineto
15 1 lineto
14 1 lineto
14 0 lineto
17 0 moveto
18 0 lineto
18 1 lineto
17 1 lineto
17 0 lineto
18 0 moveto
19 0 lineto
19 1 lineto
18 1 lineto
18 0 lineto
20 0 moveto
21 0 lineto
21 1 lineto
20 1 lineto
20 0 lineto
22 0 moveto
23 0 lineto
23 1 lineto
22 1 lineto
22 0 lineto
23 0 moveto
24 0 lineto
24 1 lineto
23 1 lineto
23 0 lineto
24 0 moveto
25 0 lineto
25 1 lineto
24 1 lineto
24 0 lineto
25 0 moveto
26 0 lineto
26 1 lineto
25 1 lineto
25 0 lineto
26 0 moveto
27 0 lineto
27 1 lineto
26 1 lineto
26 0 lineto
29 0 moveto
30 0 lineto
30 1 lineto
29 1 lineto
29 0 lineto
30 0 moveto
31 0 lineto
31 1 lineto
30 1 lineto
30 0 lineto
32 0 moveto
33 0 lineto
33 1 lineto
32 1 lineto
32 0 lineto
33 0 moveto
34 0 lineto
34 1 lineto
33 1 lineto
33 0 lineto
34 0 moveto
35 0 lineto
35 1 lineto
34 1 lineto
34 0 lineto
35 0 moveto
36 0 lineto
36 1 lineto
35 1 lineto
35 0 lineto
36 0 moveto
37 0 lineto
37 1 lineto
36 1 lineto
36 0 lineto
0 1 moveto
1 1 lineto
1 2 lineto
0 2 lineto
0 1 lineto
6 1 moveto
7 1 lineto
7 2 lineto
6 2 lineto
6 1 lineto
8 1 moveto
9 1 lineto
9 2 lineto
8 2 lineto
8 1 lineto
9 1 moveto
10 1 lineto
10 2 lineto
9 2 lineto
9 1 lineto
10 1 moveto
11 1 lineto
11 2 lineto
10 2 lineto
10 1 lineto
12 1 moveto
13 1 lineto
13 2 lineto
12 2 lineto
12 1 lineto
13 1 moveto
14 1 lineto
14 2 lineto
13 2 lineto
13 1 lineto
15 1 moveto
16 1 lineto
16 2 lineto
15 2 lineto
15 1 lineto
16 1 moveto
17 1 lineto
17 2 lineto
16 2 lineto
16 1 lineto
19 1 moveto
20 1 lineto
20 2 lineto
19 2 lineto
19 1 lineto
21 1 moveto
22 1 lineto
22 2 lineto
21 2 lineto
21 1 lineto
22 1 moveto
23 1 lineto
23 2 lineto
22 2 lineto
22 1 lineto
24 1 moveto
25 1 lineto
25 2 lineto
24 2 lineto
24 1 lineto
26 1 moveto
27 1 lineto
27 2 lineto
26 2 lineto
26 1 lineto
27 1 moveto
28 1 lineto
28 2 lineto
27 2 lineto
27 1 lineto
28 1 moveto
29 1 lineto
29 2 lineto
28 2 lineto
28 1 lineto
29 1 moveto
30 1 lineto
30 2 lineto
29 2 lineto
29 1 lineto
31 1 moveto
32 1 lineto
32 2 lineto
31 2 lineto
31 1 lineto
32 1 moveto
33 1 lineto
33 2 lineto
32 2 lineto
32 1 lineto
36 1 moveto
37 1 lineto
37 2 lineto
36 2 lineto
36 1 lineto
0 2 moveto
1 2 lineto
1 3 lineto
0 3 lineto
0 2 lineto
2 2 moveto
3 2 lineto
3 3 lineto
2 3 lineto
2 2 lineto
3 2 moveto
4 2 lineto
4 3 lineto
3 3 lineto
3 2 lineto
4 2 moveto
5 2 lineto
5 3 lineto
4 3 lineto
4 2 lineto
6 2 moveto
7 2 lineto
7 3 lineto
6 3 lineto
6 2 lineto
8 2 moveto
9 2 lineto
9 3 lineto
8 3 lineto
8 2 lineto
10 2 moveto
11 2 lineto
11 3 lineto
10 3 lineto
10 2 lineto
13 2 moveto
14 2 lineto
14 3 lineto
13 3 lineto
13 2 lineto
14 2 moveto
15 2 lineto
15 3 lineto
14 3 lineto
14 2 lineto
15 2 moveto
16 2 lineto
16 3 lineto
15 3 lineto
15 2 lineto
16 2 moveto
17 2 lineto
17 3 lineto
16 3 lineto
16 2 lineto
18 2 moveto
19 2 lineto
19 3 lineto
18 3 lineto
18 2 lineto
20 2 moveto
21 2 lineto
21 3 lineto
20 3 lineto
20 2 lineto
21 2 moveto
22 2 lineto
22 3 lineto
21 3 lineto
21 2 lineto
24 2 moveto
25 2 lineto
25 3 lineto
24 3 lineto
24 2 lineto
25 2 moveto
26 2 lineto
26 3 lineto
25 3 lineto
25 2 lineto
27 2 moveto
28 2 lineto
28 3 lineto
27 3 lineto
27 2 lineto
31 2 moveto
32 2 lineto
32 3 lineto
31 3 lineto
31 2 lineto
35 2 moveto
36 2 lineto
36 3 lineto
35 3 lineto
35 2 lineto
36 2 moveto
37 2 lineto
37 3 lineto
36 3 lineto
36 2 lineto
0 3 moveto
1 3 lineto
1 4 lineto
0 4 lineto
0 3 lineto
2 3 moveto
3 3 lineto
3 4 lineto
2 4 lineto
2 3 lineto
3 3 moveto
4 3 lineto
4 4 lineto
3 4 lineto
3 3 lineto
4 3 moveto
5 3 lineto
5 4 lineto
4 4 lineto
4 3 lineto
6 3 moveto
7 3 lineto
7 4 lineto
6 4 lineto
6 3 lineto
8 3 moveto
9 3 lineto
9 4 lineto
8 4 lineto
8 3 lineto
9 3 moveto
10 3 lineto
10 4 lineto
9 4 lineto
9 3 lineto
10 3 moveto
11 3 lineto
11 4 lineto
10 4 lineto
10 3 lineto
12 3 moveto
13 3 lineto
13 4 lineto
12 4 lineto
12 3 lineto
13 3 moveto
14 3 lineto
14 4 lineto
13 4 lineto
13 3 lineto
14 3 moveto
15 3 lineto
15 4 lineto
14 4 lineto
14 3 lineto
15 3 moveto
16 3 lineto
16 4 lineto
15 4 lineto
15 3 lineto
16 3 moveto
17 3 lineto
17 4 lineto
16 4 lineto
16 3 lineto
18 3 moveto
19 3 lineto
19 4 lineto
18 4 lineto
18 3 lineto
19 3 moveto
20 3 lineto
20 4 lineto
19 4 lineto
19 3 lineto
21 3 moveto
22 3 lineto
22 4 lineto
21 4 lineto
21 3 lineto
23 3 moveto
24 3 lineto
24 4 lineto
23 4 lineto
23 3 lineto
30 3 moveto
31 3 lineto
31 4 lineto
30 4 lineto
30 3 lineto
31 3 moveto
32 3 lineto
32 4 lineto
31 4 lineto
31 3 lineto
32 3 moveto
33 3 lineto
33 4 lineto
32 4 lineto
32 3 lineto
33 3 moveto
34 3 lineto
34 4 lineto
33 4 lineto
33 3 lineto
35 3 moveto
36 3 lineto
36 4 lineto
35 4 lineto
35 3 lineto
36 3 moveto
37 3 lineto
37 4 lineto
36 4 lineto
36 3 lineto
0 4 moveto
1 4 lineto
1 5 lineto
0 5 lineto
0 4 lineto
2 4 moveto
3 4 lineto
3 5 lineto
2 5 lineto
2 4 lineto
3 4 moveto
4 4 lineto
4 5 lineto
3 5 lineto
3 4 lineto
4 4 moveto
5 4 lineto
5 5 lineto
4 5 lineto
4 4 lineto
6 4 moveto
7 4 lineto
7 5 lineto
6 5 lineto
6 4 lineto
8 4 moveto
9 4 lineto
9 5 lineto
8 5 lineto
8 4 lineto
9 4 moveto
10 4 lineto
10 5 lineto
9 5 lineto
9 4 lineto
11 4 moveto
12 4 lineto
12 5 lineto
11 5 lineto
11 4 lineto
15 4 moveto
16 4 lineto
16 5 lineto
15 5 lineto
15 4 lineto
16 4 moveto
17 4 lineto
17 5 lineto
16 5 lineto
16 4 lineto
19 4 moveto
20 4 lineto
20 5 lineto
19 5 lineto
19 4 lineto
22 4 moveto
23 4 lineto
23 5 lineto
22 5 lineto
22 4 lineto
23 4 moveto
24 4 lineto
24 5 lineto
23 5 lineto
23 4 lineto
24 4 moveto
25 4 lineto
25 5 lineto
24 5 lineto
24 4 lineto
25 4 moveto
26 4 lineto
26 5 lineto
25 5 lineto
25 4 lineto
26 4 moveto
27 4 lineto
27 5 lineto
26 5 lineto
26 4 lineto
27 4 moveto
28 4 lineto
28 5 lineto
27 5 lineto
27 4 lineto
28 4 moveto
29 4 lineto
29 5 lineto
28 5 lineto
28 4 lineto
29 4 moveto
30 4 lineto
30 5 lineto
29 5 lineto
29 4 lineto
30 4 moveto
31 4 lineto
31 5 lineto
30 5 lineto
30 4 lineto
31 4 moveto
32 4 lineto
32 5 lineto
31 5 lineto
31 4 lineto
32 4 moveto
33 4 lineto
33 5 lineto
32 5 lineto
32 4 lineto
33 4 moveto
34 4 lineto
34 5 lineto
33 5 lineto
33 4 lineto
34 4 moveto
35 4 lineto
35 5 lineto
34 5 lineto
34 4 lineto
0 5 moveto
1 5 lineto
1 6 lineto
0 6 lineto
0 5 lineto
6 5 moveto
7 5 lineto
7 6 lineto
6 6 lineto
6 5 lineto
11 5 moveto
12 5 lineto
12 6 lineto
11 6 lineto
11 5 lineto
14 5 moveto
15 5 lineto
15 6 lineto
14 6 lineto
14 5 lineto
15 5 moveto
16 5 lineto
16 6 lineto
15 6 lineto
15 5 lineto
16 5 moveto
17 5 lineto
17 6 lineto
16 6 lineto
16 5 lineto
18 5 moveto
19 5 lineto
19 6 lineto
18 6 lineto
18 5 lineto
20 5 moveto
21 5 lineto
21 6 lineto
20 6 lineto
20 5 lineto
21 5 moveto
22 5 lineto
22 6 lineto
21 6 lineto
21 5 lineto
23 5 moveto
24 5 lineto
24 6 lineto
23 6 lineto
23 5 lineto
26 5 moveto
27 5 lineto
27 6 lineto
26 6 lineto
26 5 lineto
28 5 moveto
29 5 lineto
29 6 lineto
28 6 lineto
28 5 lineto
32 5 moveto
33 5 lineto
33 6 lineto
32 6 lineto
32 5 lineto
36 5 moveto
37 5 lineto
37 6 lineto
36 6 lineto
36 5 lineto
0 6 moveto
1 6 lineto
1 7 lineto
0 7 lineto
0 6 lineto
1 6 moveto
2 6 lineto
2 7 lineto
1 7 lineto
1 6 lineto
2 6 moveto
3 6 lineto
3 7 lineto
2 7 lineto
2 6 lineto
3 6 moveto
4 6 lineto
4 7 lineto
3 7 lineto
3 6 lineto
4 6 moveto
5 6 lineto
5 7 lineto
4 7 lineto
4 6 lineto
5 6 moveto
6 6 lineto
6 7 lineto
5 7 lineto
5 6 lineto
6 6 moveto
7 6 lineto
7 7 lineto
6 7 lineto
6 6 lineto
8 6 moveto
9 6 lineto
9 7 lineto
8 7 lineto
8 6 lineto
9 6 moveto
10 6 lineto
10 7 lineto
9 7 lineto
9 6 lineto
11 6 moveto
12 6 lineto
12 7 lineto
11 7 lineto
11 6 lineto
12 6 moveto
13 6 lineto
13 7 lineto
12 7 lineto
12 6 lineto
15 6 moveto
16 6 lineto
16 7 lineto
15 7 lineto
15 6 lineto
20 6 moveto
21 6 lineto
21 7 lineto
20 7 lineto
20 6 lineto
21 6 moveto
22 6 lineto
22 7 lineto
21 7 lineto
21 6 lineto
22 6 moveto
23 6 lineto
23 7 lineto
22 7 lineto
22 6 lineto
24 6 moveto
25 6 lineto
25 7 lineto
24 7 lineto
24 6 lineto
26 6 moveto
27 6 lineto
27 7 lineto
26 7 lineto
26 6 lineto
28 6 moveto
29 6 lineto
29 7 lineto
28 7 lineto
28 6 lineto
30 6 moveto
31 6 lineto
31 7 lineto
30 7 lineto
30 6 lineto
32 6 moveto
33 6 lineto
33 7 lineto
32 7 lineto
32 6 lineto
33 6 moveto
34 6 lineto
34 7 lineto
33 7 lineto
33 6 lineto
34 6 moveto
35 6 lineto
35 7 lineto
34 7 lineto
34 6 lineto
35 6 moveto
36 6 lineto
36 7 lineto
35 7 lineto
35 6 lineto
36 6 moveto
37 6 lineto
37 7 lineto
36 7 lineto
36 6 lineto
8 7 moveto
9 7 lineto
9 8 lineto
8 8 lineto
8 7 lineto
10 7 moveto
11 7 lineto
11 8 lineto
10 8 lineto
10 7 lineto
16 7 moveto
17 7 lineto
17 8 lineto
16 8 lineto
16 7 lineto
20 7 moveto
21 7 lineto
21 8 lineto
20 8 lineto
20 7 lineto
21 7 moveto
22 7 lineto
22 8 lineto
21 8 lineto
21 7 lineto
23 7 moveto
24 7 lineto
24 8 lineto
23 8 lineto
23 7 lineto
27 7 moveto
28 7 lineto
28 8 lineto
27 8 lineto
27 7 lineto
28 7 moveto
29 7 lineto
29 8 lineto
28 8 lineto
28 7 lineto
32 7 moveto
33 7 lineto
33 8 lineto
32 8 lineto
32 7 lineto
34 7 moveto
35 7 lineto
35 8 lineto
34 8 lineto
34 7 lineto
0 8 moveto
1 8 lineto
1 9 lineto
0 9 lineto
0 8 lineto
4 8 moveto
5 8 lineto
5 9 lineto
4 9 lineto
4 8 lineto
6 8 moveto
7 8 lineto
7 9 lineto
6 9 lineto
6 8 lineto
12 8 moveto
13 8 lineto
13 9 lineto
12 9 lineto
12 8 lineto
14 8 moveto
15 8 lineto
15 9 lineto
14 9 lineto
14 8 lineto
15 8 moveto
16 8 lineto
16 9 lineto
15 9 lineto
15 8 lineto
19 8 moveto
20 8 lineto
20 9 lineto
19 9 lineto
19 8 lineto
21 8 moveto
22 8 lineto
22 9 lineto
21 9 lineto
21 8 lineto
22 8 moveto
23 8 lineto
23 9 lineto
22 9 lineto
22 8 lineto
23 8 moveto
24 8 lineto
24 9 lineto
23 9 lineto
23 8 lineto
24 8 moveto
25 8 lineto
25 9 lineto
24 9 lineto
24 8 lineto
25 8 moveto
26 8 lineto
26 9 lineto
25 9 lineto
25 8 lineto
26 8 moveto
27 8 lineto
27 9 lineto
26 9 lineto
26 8 lineto
27 8 moveto
28 8 lineto
28 9 lineto
27 9 lineto
27 8 lineto
28 8 moveto
29 8 lineto
29 9 lineto
28 9 lineto
28 8 lineto
29 8 moveto
30 8 lineto
30 9 lineto
29 9 lineto
29 8 lineto
30 8 moveto
31 8 lineto
31 9 lineto
30 9 lineto
30 8 lineto
31 8 moveto
32 8 lineto
32 9 lineto
31 9 lineto
31 8 lineto
32 8 moveto
33 8 lineto
33 9 lineto
32 9 lineto
32 8 lineto
33 8 moveto
34 8 lineto
34 9 lineto
33 9 lineto
33 8 lineto
34 8 moveto
35 8 lineto
35 9 lineto
34 9 lineto
34 8 lineto
0 9 moveto
1 9 lineto
1 10 lineto
0 10 lineto
0 9 lineto
2 9 moveto
3 9 lineto
3 10 lineto
2 10 lineto
2 9 lineto
8 9 moveto
9 9 lineto
9 10 lineto
8 10 lineto
8 9 lineto
9 9 moveto
10 9 lineto
10 10 lineto
9 10 lineto
9 9 lineto
10 9 moveto
11 9 lineto
11 10 lineto
10 10 lineto
10 9 lineto
12 9 moveto
13 9 lineto
13 10 lineto
12 10 lineto
12 9 lineto
13 9 moveto
14 9 lineto
14 10 lineto
13 10 lineto
13 9 lineto
15 9 moveto
16 9 lineto
16 10 lineto
15 10 lineto
15 9 lineto
16 9 moveto
17 9 lineto
17 10 lineto
16 10 lineto
16 9 lineto
21 9 moveto
22 9 lineto
22 10 lineto
21 10 lineto
21 9 lineto
22 9 moveto
23 9 lineto
23 10 lineto
22 10 lineto
22 9 lineto
24 9 moveto
25 9 lineto
25 10 lineto
24 10 lineto
24 9 lineto
27 9 moveto
28 9 lineto
28 10 lineto
27 10 lineto
27 9 lineto
30 9 moveto
31 9 lineto
31 10 lineto
30 10 lineto
30 9 lineto
31 9 moveto
32 9 lineto
32 10 lineto
31 10 lineto
31 9 lineto
33 9 moveto
34 9 lineto
34 10 lineto
33 10 lineto
33 9 lineto
36 9 moveto
37 9 lineto
37 10 lineto
36 10 lineto
36 9 lineto
0 10 moveto
1 10 lineto
1 11 lineto
0 11 lineto
0 10 lineto
2 10 moveto
3 10 lineto
3 11 lineto
2 11 lineto
2 10 lineto
4 10 moveto
5 10 lineto
5 11 lineto
4 11 lineto
4 10 lineto
5 10 moveto
6 10 lineto
6 11 lineto
5 11 lineto
5 10 lineto
6 10 moveto
7 10 lineto
7 11 lineto
6 11 lineto
6 10 lineto
7 10 moveto
8 10 lineto
8 11 lineto
7 11 lineto
7 10 lineto
8 10 moveto
9 10 lineto
9 11 lineto
8 11 lineto
8 10 lineto
9 10 moveto
10 10 lineto
10 11 lineto
9 11 lineto
9 10 lineto
13 10 moveto
14 10 lineto
14 11 lineto
13 11 lineto
13 10 lineto
14 10 moveto
15 10 lineto
15 11 lineto
14 11 lineto
14 10 lineto
15 10 moveto
16 10 lineto
16 11 lineto
15 11 lineto
15 10 lineto
16 10 moveto
17 10 lineto
17 11 lineto
16 11 lineto
16 10 lineto
17 10 moveto
18 10 lineto
18 11 lineto
17 11 lineto
17 10 lineto
20 10 moveto
21 10 lineto
21 11 lineto
20 11 lineto
20 10 lineto
22 10 moveto
23 10 lineto
23 11 lineto
22 11 lineto
22 10 lineto
26 10 moveto
27 10 lineto
27 11 lineto
26 11 lineto
26 10 lineto
27 10 moveto
28 10 lineto
28 11 lineto
27 11 lineto
27 10 lineto
28 10 moveto
29 10 lineto
29 11 lineto
28 11 lineto
28 10 lineto
31 10 moveto
32 10 lineto
32 11 lineto
31 11 lineto
31 10 lineto
34 10 moveto
35 10 lineto
35 11 lineto
34 11 lineto
34 10 lineto
35 10 moveto
36 10 lineto
36 11 lineto
35 11 lineto
35 10 lineto
36 10 moveto
37 10 lineto
37 11 lineto
36 11 lineto
36 10 lineto
0 11 moveto
1 11 lineto
1 12 lineto
0 12 lineto
0 11 lineto
5 11 moveto
6 11 lineto
6 12 lineto
5 12 lineto
5 11 lineto
7 11 moveto
8 11 lineto
8 12 lineto
7 12 lineto
7 11 lineto
8 11 moveto
9 11 lineto
9 12 lineto
8 12 lineto
8 11 lineto
9 11 moveto
10 11 lineto
10 12 lineto
9 12 lineto
9 11 lineto
10 11 moveto
11 11 lineto
11 12 lineto
10 12 lineto
10 11 lineto
12 11 moveto
13 11 lineto
13 12 lineto
12 12 lineto
12 11 lineto
13 11 moveto
14 11 lineto
14 12 lineto
13 12 lineto
13 11 lineto
14 11 moveto
15 11 lineto
15 12 lineto
14 12 lineto
14 11 lineto
16 11 moveto
17 11 lineto
17 12 lineto
16 12 lineto
16 11 lineto
17 11 moveto
18 11 lineto
18 12 lineto
17 12 lineto
17 11 lineto
18 11 moveto
19 11 lineto
19 12 lineto
18 12 lineto
18 11 lineto
19 11 moveto
20 11 lineto
20 12 lineto
19 12 lineto
19 11 lineto
20 11 moveto
21 11 lineto
21 12 lineto
20 12 lineto
20 11 lineto
23 11 moveto
24 11 lineto
24 12 lineto
23 12 lineto
23 11 lineto
26 11 moveto
27 11 lineto
27 12 lineto
26 12 lineto
26 11 lineto
28 11 moveto
29 11 lineto
29 12 lineto
28 12 lineto
28 11 lineto
31 11 moveto
32 11 lineto
32 12 lineto
31 12 lineto
31 11 lineto
35 11 moveto
36 11 lineto
36 12 lineto
35 12 lineto
35 11 lineto
0 12 moveto
1 12 lineto
1 13 lineto
0 13 lineto
0 12 lineto
4 12 moveto
5 12 lineto
5 13 lineto
4 13 lineto
4 12 lineto
5 12 moveto
6 12 lineto
6 13 lineto
5 13 lineto
5 12 lineto
6 12 moveto
7 12 lineto
7 13 lineto
6 13 lineto
6 12 lineto
7 12 moveto
8 12 lineto
8 13 lineto
7 13 lineto
7 12 lineto
9 12 moveto
10 12 lineto
10 13 lineto
9 13 lineto
9 12 lineto
11 12 moveto
12 12 lineto
12 13 lineto
11 13 lineto
11 12 lineto
15 12 moveto
16 12 lineto
16 13 lineto
15 13 lineto
15 12 lineto
17 12 moveto
18 12 lineto
18 13 lineto
17 13 lineto
17 12 lineto
18 12 moveto
19 12 lineto
19 13 lineto
18 13 lineto
18 12 lineto
19 12 moveto
20 12 lineto
20 13 lineto
19 13 lineto
19 12 lineto
26 12 moveto
27 12 lineto
27 13 lineto
26 13 lineto
26 12 lineto
27 12 moveto
28 12 lineto
28 13 lineto
27 13 lineto
27 12 lineto
29 12 moveto
30 12 lineto
30 13 lineto
29 13 lineto
29 12 lineto
30 12 moveto
31 12 lineto
31 13 lineto
30 13 lineto
30 12 lineto
31 12 moveto
32 12 lineto
32 13 lineto
31 13 lineto
31 12 lineto
32 12 moveto
33 12 lineto
33 13 lineto
32 13 lineto
32 12 lineto
34 12 moveto
35 12 lineto
35 13 lineto
34 13 lineto
34 12 lineto
35 12 moveto
36 12 lineto
36 13 lineto
35 13 lineto
35 12 lineto
36 12 moveto
37 12 lineto
37 13 lineto
36 13 lineto
36 12 lineto
4 13 moveto
5 13 lineto
5 14 lineto
4 14 lineto
4 13 lineto
5 13 moveto
6 13 lineto
6 14 lineto
5 14 lineto
5 13 lineto
7 13 moveto
8 13 lineto
8 14 lineto
7 14 lineto
7 13 lineto
9 13 moveto
10 13 lineto
10 14 lineto
9 14 lineto
9 13 lineto
10 13 moveto
11 13 lineto
11 14 lineto
10 14 lineto
10 13 lineto
11 13 moveto
12 13 lineto
12 14 lineto
11 14 lineto
11 13 lineto
14 13 moveto
15 13 lineto
15 14 lineto
14 14 lineto
14 13 lineto
15 13 moveto
16 13 lineto
16 14 lineto
15 14 lineto
15 13 lineto
19 13 moveto
20 13 lineto
20 14 lineto
19 14 lineto
19 13 lineto
20 13 moveto
21 13 lineto
21 14 lineto
20 14 lineto
20 13 lineto
21 13 moveto
22 13 lineto
22 14 lineto
21 14 lineto
21 13 lineto
22 13 moveto
23 13 lineto
23 14 lineto
22 14 lineto
22 13 lineto
23 13 moveto
24 13 lineto
24 14 lineto
23 14 lineto
23 13 lineto
24 13 moveto
25 13 lineto
25 14 lineto
24 14 lineto
24 13 lineto
26 13 moveto
27 13 lineto
27 14 lineto
26 14 lineto
26 13 lineto
30 13 moveto
31 13 lineto
31 14 lineto
30 14 lineto
30 13 lineto
36 13 moveto
37 13 lineto
37 14 lineto
36 14 lineto
36 13 lineto
3 14 moveto
4 14 lineto
4 15 lineto
3 15 lineto
3 14 lineto
4 14 moveto
5 14 lineto
5 15 lineto
4 15 lineto
4 14 lineto
5 14 moveto
6 14 lineto
6 15 lineto
5 15 lineto
5 14 lineto
6 14 moveto
7 14 lineto
7 15 lineto
6 15 lineto
6 14 lineto
8 14 moveto
9 14 lineto
9 15 lineto
8 15 lineto
8 14 lineto
10 14 moveto
11 14 lineto
11 15 lineto
10 15 lineto
10 14 lineto
11 14 moveto
12 14 lineto
12 15 lineto
11 15 lineto
11 14 lineto
12 14 moveto
13 14 lineto
13 15 lineto
12 15 lineto
12 14 lineto
15 14 moveto
16 14 lineto
16 15 lineto
15 15 lineto
15 14 lineto
16 14 moveto
17 14 lineto
17 15 lineto
16 15 lineto
16 14 lineto
25 14 moveto
26 14 lineto
26 15 lineto
25 15 lineto
25 14 lineto
26 14 moveto
27 14 lineto
27 15 lineto
26 15 lineto
26 14 lineto
27 14 moveto
28 14 lineto
28 15 lineto
27 15 lineto
27 14 lineto
28 14 moveto
29 14 lineto
29 15 lineto
28 15 lineto
28 14 lineto
29 14 moveto
30 14 lineto
30 15 lineto
29 15 lineto
29 14 lineto
30 14 moveto
31 14 lineto
31 15 lineto
30 15 lineto
30 14 lineto
31 14 moveto
32 14 lineto
32 15 lineto
31 15 lineto
31 14 lineto
32 14 moveto
33 14 lineto
33 15 lineto
32 15 lineto
32 14 lineto
34 14 moveto
35 14 lineto
35 15 lineto
34 15 lineto
34 14 lineto
35 14 moveto
36 14 lineto
36 15 lineto
35 15 lineto
35 14 lineto
36 14 moveto
37 14 lineto
37 15 lineto
36 15 lineto
36 14 lineto
0 15 moveto
1 15 lineto
1 16 lineto
0 16 lineto
0 15 lineto
1 15 moveto
2 15 lineto
2 16 lineto
1 16 lineto
1 15 lineto
2 15 moveto
3 15 lineto
3 16 lineto
2 16 lineto
2 15 lineto
4 15 moveto
5 15 lineto
5 16 lineto
4 16 lineto
4 15 lineto
8 15 moveto
9 15 lineto
9 16 lineto
8 16 lineto
8 15 lineto
9 15 moveto
10 15 lineto
10 16 lineto
9 16 lineto
9 15 lineto
16 15 moveto
17 15 lineto
17 16 lineto
16 16 lineto
16 15 lineto
17 15 moveto
18 15 lineto
18 16 lineto
17 16 lineto
17 15 lineto
18 15 moveto
19 15 lineto
19 16 lineto
18 16 lineto
18 15 lineto
19 15 moveto
20 15 lineto
20 16 lineto
19 16 lineto
19 15 lineto
20 15 moveto
21 15 lineto
21 16 lineto
20 16 lineto
20 15 lineto
23 15 moveto
24 15 lineto
24 16 lineto
23 16 lineto
23 15 lineto
25 15 moveto
26 15 lineto
26 16 lineto
25 16 lineto
25 15 lineto
28 15 moveto
29 15 lineto
29 16 lineto
28 16 lineto
28 15 lineto
29 15 moveto
30 15 lineto
30 16 lineto
29 16 lineto
29 15 lineto
31 15 moveto
32 15 lineto
32 16 lineto
31 16 lineto
31 15 lineto
35 15 moveto
36 15 lineto
36 16 lineto
35 16 lineto
35 15 lineto
0 16 moveto
1 16 lineto
1 17 lineto
0 17 lineto
0 16 lineto
1 16 moveto
2 16 lineto
2 17 lineto
1 17 lineto
1 16 lineto
6 16 moveto
7 16 lineto
7 17 lineto
6 17 lineto
6 16 lineto
8 16 moveto
9 16 lineto
9 17 lineto
8 17 lineto
8 16 lineto
9 16 moveto
10 16 lineto
10 17 lineto
9 17 lineto
9 16 lineto
12 16 moveto
13 16 lineto
13 17 lineto
12 17 lineto
12 16 lineto
14 16 moveto
15 16 lineto
15 17 lineto
14 17 lineto
14 16 lineto
17 16 moveto
18 16 lineto
18 17 lineto
17 17 lineto
17 16 lineto
20 16 moveto
21 16 lineto
21 17 lineto
20 17 lineto
20 16 lineto
22 16 moveto
23 16 lineto
23 17 lineto
22 17 lineto
22 16 lineto
24 16 moveto
25 16 lineto
25 17 lineto
24 17 lineto
24 16 lineto
25 16 moveto
26 16 lineto
26 17 lineto
25 17 lineto
25 16 lineto
29 16 moveto
30 16 lineto
30 17 lineto
29 17 lineto
29 16 lineto
30 16 moveto
31 16 lineto
31 17 lineto
30 17 lineto
30 16 lineto
31 16 moveto
32 16 lineto
32 17 lineto
31 17 lineto
31 16 lineto
32 16 moveto
33 16 lineto
33 17 lineto
32 17 lineto
32 16 lineto
34 16 moveto
35 16 lineto
35 17 lineto
34 17 lineto
34 16 lineto
35 16 moveto
36 16 lineto
36 17 lineto
35 17 lineto
35 16 lineto
36 16 moveto
37 16 lineto
37 17 lineto
36 17 lineto
36 16 lineto
2 17 moveto
3 17 lineto
3 18 lineto
2 18 lineto
2 17 lineto
3 17 moveto
4 17 lineto
4 18 lineto
3 18 lineto
3 17 lineto
5 17 moveto
6 17 lineto
6 18 lineto
5 18 lineto
5 17 lineto
7 17 moveto
8 17 lineto
8 18 lineto
7 18 lineto
7 17 lineto
8 17 moveto
9 17 lineto
9 18 lineto
8 18 lineto
8 17 lineto
9 17 moveto
10 17 lineto
10 18 lineto
9 18 lineto
9 17 lineto
12 17 moveto
13 17 lineto
13 18 lineto
12 18 lineto
12 17 lineto
13 17 moveto
14 17 lineto
14 18 lineto
13 18 lineto
13 17 lineto
15 17 moveto
16 17 lineto
16 18 lineto
15 18 lineto
15 17 lineto
16 17 moveto
17 17 lineto
17 18 lineto
16 18 lineto
16 17 lineto
19 17 moveto
20 17 lineto
20 18 lineto
19 18 lineto
19 17 lineto
21 17 moveto
22 17 lineto
22 18 lineto
21 18 lineto
21 17 lineto
22 17 moveto
23 17 lineto
23 18 lineto
22 18 lineto
22 17 lineto
23 17 moveto
24 17 lineto
24 18 lineto
23 18 lineto
23 17 lineto
24 17 moveto
25 17 lineto
25 18 lineto
24 18 lineto
24 17 lineto
26 17 moveto
27 17 lineto
27 18 lineto
26 18 lineto
26 17 lineto
27 17 moveto
28 17 lineto
28 18 lineto
27 18 lineto
27 17 lineto
29 17 moveto
30 17 lineto
30 18 lineto
29 18 lineto
29 17 lineto
31 17 moveto
32 17 lineto
32 18 lineto
31 18 lineto
31 17 lineto
36 17 moveto
37 17 lineto
37 18 lineto
36 18 lineto
36 17 lineto
0 18 moveto
1 18 lineto
1 19 lineto
0 19 lineto
0 18 lineto
1 18 moveto
2 18 lineto
2 19 lineto
1 19 lineto
1 18 lineto
4 18 moveto
5 18 lineto
5 19 lineto
4 19 lineto
4 18 lineto
6 18 moveto
7 18 lineto
7 19 lineto
6 19 lineto
6 18 lineto
8 18 moveto
9 18 lineto
9 19 lineto
8 19 lineto
8 18 lineto
9 18 moveto
10 18 lineto
10 19 lineto
9 19 lineto
9 18 lineto
10 18 moveto
11 18 lineto
11 19 lineto
10 19 lineto
10 18 lineto
13 18 moveto
14 18 lineto
14 19 lineto
13 19 lineto
13 18 lineto
14 18 moveto
15 18 lineto
15 19 lineto
14 19 lineto
14 18 lineto
15 18 moveto
16 18 lineto
16 19 lineto
15 19 lineto
15 18 lineto
16 18 moveto
17 18 lineto
17 19 lineto
16 19 lineto
16 18 lineto
18 18 moveto
19 18 lineto
19 19 lineto
18 19 lineto
18 18 lineto
20 18 moveto
21 18 lineto
21 19 lineto
20 19 lineto
20 18 lineto
21 18 moveto
22 18 lineto
22 19 lineto
21 19 lineto
21 18 lineto
25 18 moveto
26 18 lineto
26 19 lineto
25 19 lineto
25 18 lineto
27 18 moveto
28 18 lineto
28 19 lineto
27 19 lineto
27 18 lineto
29 18 moveto
30 18 lineto
30 19 lineto
29 19 lineto
29 18 lineto
30 18 moveto
31 18 lineto
31 19 lineto
30 19 lineto
30 18 lineto
34 18 moveto
35 18 lineto
35 19 lineto
34 19 lineto
34 18 lineto
35 18 moveto
36 18 lineto
36 19 lineto
35 19 lineto
35 18 lineto
36 18 moveto
37 18 lineto
37 19 lineto
36 19 lineto
36 18 lineto
0 19 moveto
1 19 lineto
1 20 lineto
0 20 lineto
0 19 lineto
1 19 moveto
2 19 lineto
2 20 lineto
1 20 lineto
1 19 lineto
3 19 moveto
4 19 lineto
4 20 lineto
3 20 lineto
3 19 lineto
4 19 moveto
5 19 lineto
5 20 lineto
4 20 lineto
4 19 lineto
8 19 moveto
9 19 lineto
9 20 lineto
8 20 lineto
8 19 lineto
9 19 moveto
10 19 lineto
10 20 lineto
9 20 lineto
9 19 lineto
12 19 moveto
13 19 lineto
13 20 lineto
12 20 lineto
12 19 lineto
13 19 moveto
14 19 lineto
14 20 lineto
13 20 lineto
13 19 lineto
14 19 moveto
15 19 lineto
15 20 lineto
14 20 lineto
14 19 lineto
18 19 moveto
19 19 lineto
19 20 lineto
18 20 lineto
18 19 lineto
19 19 moveto
20 19 lineto
20 20 lineto
19 20 lineto
19 19 lineto
20 19 moveto
21 19 lineto
21 20 lineto
20 20 lineto
20 19 lineto
23 19 moveto
24 19 lineto
24 20 lineto
23 20 lineto
23 19 lineto
26 19 moveto
27 19 lineto
27 20 lineto
26 20 lineto
26 19 lineto
28 19 moveto
29 19 lineto
29 20 lineto
28 20 lineto
28 19 lineto
29 19 moveto
30 19 lineto
30 20 lineto
29 20 lineto
29 19 lineto
31 19 moveto
32 19 lineto
32 20 lineto
31 20 lineto
31 19 lineto
35 19 moveto
36 19 lineto
36 20 lineto
35 20 lineto
35 19 lineto
0 20 moveto
1 20 lineto
1 21 lineto
0 21 lineto
0 20 lineto
2 20 moveto
3 20 lineto
3 21 lineto
2 21 lineto
2 20 lineto
3 20 moveto
4 20 lineto
4 21 lineto
3 21 lineto
3 20 lineto
4 20 moveto
5 20 lineto
5 21 lineto
4 21 lineto
4 20 lineto
5 20 moveto
6 20 lineto
6 21 lineto
5 21 lineto
5 20 lineto
6 20 moveto
7 20 lineto
7 21 lineto
6 21 lineto
6 20 lineto
7 20 moveto
8 20 lineto
8 21 lineto
7 21 lineto
7 20 lineto
10 20 moveto
11 20 lineto
11 21 lineto
10 21 lineto
10 20 lineto
11 20 moveto
12 20 lineto
12 21 lineto
11 21 lineto
11 20 lineto
17 20 moveto
18 20 lineto
18 21 lineto
17 21 lineto
17 20 lineto
20 20 moveto
21 20 lineto
21 21 lineto
20 21 lineto
20 20 lineto
22 20 moveto
23 20 lineto
23 21 lineto
22 21 lineto
22 20 lineto
23 20 moveto
24 20 lineto
24 21 lineto
23 21 lineto
23 20 lineto
24 20 moveto
25 20 lineto
25 21 lineto
24 21 lineto
24 20 lineto
25 20 moveto
26 20 lineto
26 21 lineto
25 21 lineto
25 20 lineto
26 20 moveto
27 20 lineto
27 21 lineto
26 21 lineto
26 20 lineto
27 20 moveto
28 20 lineto
28 21 lineto
27 21 lineto
27 20 lineto
29 20 moveto
30 20 lineto
30 21 lineto
29 21 lineto
29 20 lineto
30 20 moveto
31 20 lineto
31 21 lineto
30 21 lineto
30 20 lineto
32 20 moveto
33 20 lineto
33 21 lineto
32 21 lineto
32 20 lineto
34 20 moveto
35 20 lineto
35 21 lineto
34 21 lineto
34 20 lineto
36 20 moveto
37 20 lineto
37 21 lineto
36 21 lineto
36 20 lineto
1 21 moveto
2 21 lineto
2 22 lineto
1 22 lineto
1 21 lineto
4 21 moveto
5 21 lineto
5 22 lineto
4 22 lineto
4 21 lineto
5 21 moveto
6 21 lineto
6 22 lineto
5 22 lineto
5 21 lineto
7 21 moveto
8 21 lineto
8 22 lineto
7 22 lineto
7 21 lineto
10 21 moveto
11 21 lineto
11 22 lineto
10 22 lineto
10 21 lineto
11 21 moveto
12 21 lineto
12 22 lineto
11 22 lineto
11 21 lineto
14 21 moveto
15 21 lineto
15 22 lineto
14 22 lineto
14 21 lineto
16 21 moveto
17 21 lineto
17 22 lineto
16 22 lineto
16 21 lineto
20 21 moveto
21 21 lineto
21 22 lineto
20 22 lineto
20 21 lineto
21 21 moveto
22 21 lineto
22 22 lineto
21 22 lineto
21 21 lineto
24 21 moveto
25 21 lineto
25 22 lineto
24 22 lineto
24 21 lineto
26 21 moveto
27 21 lineto
27 22 lineto
26 22 lineto
26 21 lineto
27 21 moveto
28 21 lineto
28 22 lineto
27 22 lineto
27 21 lineto
28 21 moveto
29 21 lineto
29 22 lineto
28 22 lineto
28 21 lineto
32 21 moveto
33 21 lineto
33 22 lineto
32 22 lineto
32 21 lineto
36 21 moveto
37 21 lineto
37 22 lineto
36 22 lineto
36 21 lineto
0 22 moveto
1 22 lineto
1 23 lineto
0 23 lineto
0 22 lineto
2 22 moveto
3 22 lineto
3 23 lineto
2 23 lineto
2 22 lineto
4 22 moveto
5 22 lineto
5 23 lineto
4 23 lineto
4 22 lineto
5 22 moveto
6 22 lineto
6 23 lineto
5 23 lineto
5 22 lineto
6 22 moveto
7 22 lineto
7 23 lineto
6 23 lineto
6 22 lineto
9 22 moveto
10 22 lineto
10 23 lineto
9 23 lineto
9 22 lineto
11 22 moveto
12 22 lineto
12 23 lineto
11 23 lineto
11 22 lineto
12 22 moveto
13 22 lineto
13 23 lineto
12 23 lineto
12 22 lineto
15 22 moveto
16 22 lineto
16 23 lineto
15 23 lineto
15 22 lineto
16 22 moveto
17 22 lineto
17 23 lineto
16 23 lineto
16 22 lineto
21 22 moveto
22 22 lineto
22 23 lineto
21 23 lineto
21 22 lineto
22 22 moveto
23 22 lineto
23 23 lineto
22 23 lineto
22 22 lineto
24 22 moveto
25 22 lineto
25 23 lineto
24 23 lineto
24 22 lineto
26 22 moveto
27 22 lineto
27 23 lineto
26 23 lineto
26 22 lineto
27 22 moveto
28 22 lineto
28 23 lineto
27 23 lineto
27 22 lineto
28 22 moveto
29 22 lineto
29 23 lineto
28 23 lineto
28 22 lineto
30 22 moveto
31 22 lineto
31 23 lineto
30 23 lineto
30 22 lineto
31 22 moveto
32 22 lineto
32 23 lineto
31 23 lineto
31 22 lineto
34 22 moveto
35 22 lineto
35 23 lineto
34 23 lineto
34 22 lineto
36 22 moveto
37 22 lineto
37 23 lineto
36 23 lineto
36 22 lineto
0 23 moveto
1 23 lineto
1 24 lineto
0 24 lineto
0 23 lineto
2 23 moveto
3 23 lineto
3 24 lineto
2 24 lineto
2 23 lineto
3 23 moveto
4 23 lineto
4 24 lineto
3 24 lineto
3 23 lineto
5 23 moveto
6 23 lineto
6 24 lineto
5 24 lineto
5 23 lineto
9 23 moveto
10 23 lineto
10 24 lineto
9 24 lineto
9 23 lineto
16 23 moveto
17 23 lineto
17 24 lineto
16 24 lineto
16 23 lineto
18 23 moveto
19 23 lineto
19 24 lineto
18 24 lineto
18 23 lineto
19 23 moveto
20 23 lineto
20 24 lineto
19 24 lineto
19 23 lineto
20 23 moveto
21 23 lineto
21 24 lineto
20 24 lineto
20 23 lineto
21 23 moveto
22 23 lineto
22 24 lineto
21 24 lineto
21 23 lineto
22 23 moveto
23 23 lineto
23 24 lineto
22 24 lineto
22 23 lineto
23 23 moveto
24 23 lineto
24 24 lineto
23 24 lineto
23 23 lineto
25 23 moveto
26 23 lineto
26 24 lineto
25 24 lineto
25 23 lineto
28 23 moveto
29 23 lineto
29 24 lineto
28 24 lineto
28 23 lineto
29 23 moveto
30 23 lineto
30 24 lineto
29 24 lineto
29 23 lineto
31 23 moveto
32 23 lineto
32 24 lineto
31 24 lineto
31 23 lineto
34 23 moveto
35 23 lineto
35 24 lineto
34 24 lineto
34 23 lineto
35 23 moveto
36 23 lineto
36 24 lineto
35 24 lineto
35 23 lineto
0 24 moveto
1 24 lineto
1 25 lineto
0 25 lineto
0 24 lineto
3 24 moveto
4 24 lineto
4 25 lineto
3 25 lineto
3 24 lineto
4 24 moveto
5 24 lineto
5 25 lineto
4 25 lineto
4 24 lineto
5 24 moveto
6 24 lineto
6 25 lineto
5 25 lineto
5 24 lineto
6 24 moveto
7 24 lineto
7 25 lineto
6 25 lineto
6 24 lineto
12 24 moveto
13 24 lineto
13 25 lineto
12 25 lineto
12 24 lineto
14 24 moveto
15 24 lineto
15 25 lineto
14 25 lineto
14 24 lineto
16 24 moveto
17 24 lineto
17 25 lineto
16 25 lineto
16 24 lineto
17 24 moveto
18 24 lineto
18 25 lineto
17 25 lineto
17 24 lineto
19 24 moveto
20 24 lineto
20 25 lineto
19 25 lineto
19 24 lineto
22 24 moveto
23 24 lineto
23 25 lineto
22 25 lineto
22 24 lineto
24 24 moveto
25 24 lineto
25 25 lineto
24 25 lineto
24 24 lineto
25 24 moveto
26 24 lineto
26 25 lineto
25 25 lineto
25 24 lineto
26 24 moveto
27 24 lineto
27 25 lineto
26 25 lineto
26 24 lineto
29 24 moveto
30 24 lineto
30 25 lineto
29 25 lineto
29 24 lineto
30 24 moveto
31 24 lineto
31 25 lineto
30 25 lineto
30 24 lineto
32 24 moveto
33 24 lineto
33 25 lineto
32 25 lineto
32 24 lineto
33 24 moveto
34 24 lineto
34 25 lineto
33 25 lineto
33 24 lineto
34 24 moveto
35 24 lineto
35 25 lineto
34 25 lineto
34 24 lineto
0 25 moveto
1 25 lineto
1 26 lineto
0 26 lineto
0 25 lineto
8 25 moveto
9 25 lineto
9 26 lineto
8 26 lineto
8 25 lineto
9 25 moveto
10 25 lineto
10 26 lineto
9 26 lineto
9 25 lineto
12 25 moveto
13 25 lineto
13 26 lineto
12 26 lineto
12 25 lineto
13 25 moveto
14 25 lineto
14 26 lineto
13 26 lineto
13 25 lineto
16 25 moveto
17 25 lineto
17 26 lineto
16 26 lineto
16 25 lineto
18 25 moveto
19 25 lineto
19 26 lineto
18 26 lineto
18 25 lineto
21 25 moveto
22 25 lineto
22 26 lineto
21 26 lineto
21 25 lineto
22 25 moveto
23 25 lineto
23 26 lineto
22 26 lineto
22 25 lineto
26 25 moveto
27 25 lineto
27 26 lineto
26 26 lineto
26 25 lineto
28 25 moveto
29 25 lineto
29 26 lineto
28 26 lineto
28 25 lineto
32 25 moveto
33 25 lineto
33 26 lineto
32 26 lineto
32 25 lineto
33 25 moveto
34 25 lineto
34 26 lineto
33 26 lineto
33 25 lineto
1 26 moveto
2 26 lineto
2 27 lineto
1 27 lineto
1 26 lineto
3 26 moveto
4 26 lineto
4 27 lineto
3 27 lineto
3 26 lineto
4 26 moveto
5 26 lineto
5 27 lineto
4 27 lineto
4 26 lineto
6 26 moveto
7 26 lineto
7 27 lineto
6 27 lineto
6 26 lineto
7 26 moveto
8 26 lineto
8 27 lineto
7 27 lineto
7 26 lineto
8 26 moveto
9 26 lineto
9 27 lineto
8 27 lineto
8 26 lineto
10 26 moveto
11 26 lineto
11 27 lineto
10 27 lineto
10 26 lineto
13 26 moveto
14 26 lineto
14 27 lineto
13 27 lineto
13 26 lineto
14 26 moveto
15 26 lineto
15 27 lineto
14 27 lineto
14 26 lineto
15 26 moveto
16 26 lineto
16 27 lineto
15 27 lineto
15 26 lineto
20 26 moveto
21 26 lineto
21 27 lineto
20 27 lineto
20 26 lineto
25 26 moveto
26 26 lineto
26 27 lineto
25 27 lineto
25 26 lineto
27 26 moveto
28 26 lineto
28 27 lineto
27 27 lineto
27 26 lineto
29 26 moveto
30 26 lineto
30 27 lineto
29 27 lineto
29 26 lineto
31 26 moveto
32 26 lineto
32 27 lineto
31 27 lineto
31 26 lineto
32 26 moveto
33 26 lineto
33 27 lineto
32 27 lineto
32 26 lineto
34 26 moveto
35 26 lineto
35 27 lineto
34 27 lineto
34 26 lineto
36 26 moveto
37 26 lineto
37 27 lineto
36 27 lineto
36 26 lineto
1 27 moveto
2 27 lineto
2 28 lineto
1 28 lineto
1 27 lineto
2 27 moveto
3 27 lineto
3 28 lineto
2 28 lineto
2 27 lineto
3 27 moveto
4 27 lineto
4 28 lineto
3 28 lineto
3 27 lineto
4 27 moveto
5 27 lineto
5 28 lineto
4 28 lineto
4 27 lineto
5 27 moveto
6 27 lineto
6 28 lineto
5 28 lineto
5 27 lineto
7 27 moveto
8 27 lineto
8 28 lineto
7 28 lineto
7 27 lineto
8 27 moveto
9 27 lineto
9 28 lineto
8 28 lineto
8 27 lineto
10 27 moveto
11 27 lineto
11 28 lineto
10 28 lineto
10 27 lineto
12 27 moveto
13 27 lineto
13 28 lineto
12 28 lineto
12 27 lineto
13 27 moveto
14 27 lineto
14 28 lineto
13 28 lineto
13 27 lineto
16 27 moveto
17 27 lineto
17 28 lineto
16 28 lineto
16 27 lineto
19 27 moveto
20 27 lineto
20 28 lineto
19 28 lineto
19 27 lineto
20 27 moveto
21 27 lineto
21 28 lineto
20 28 lineto
20 27 lineto
21 27 moveto
22 27 lineto
22 28 lineto
21 28 lineto
21 27 lineto
22 27 moveto
23 27 lineto
23 28 lineto
22 28 lineto
22 27 lineto
23 27 moveto
24 27 lineto
24 28 lineto
23 28 lineto
23 27 lineto
24 27 moveto
25 27 lineto
25 28 lineto
24 28 lineto
24 27 lineto
34 27 moveto
35 27 lineto
35 28 lineto
34 28 lineto
34 27 lineto
0 28 moveto
1 28 lineto
1 29 lineto
0 29 lineto
0 28 lineto
1 28 moveto
2 28 lineto
2 29 lineto
1 29 lineto
1 28 lineto
2 28 moveto
3 28 lineto
3 29 lineto
2 29 lineto
2 28 lineto
3 28 moveto
4 28 lineto
4 29 lineto
3 29 lineto
3 28 lineto
4 28 moveto
5 28 lineto
5 29 lineto
4 29 lineto
4 28 lineto
6 28 moveto
7 28 lineto
7 29 lineto
6 29 lineto
6 28 lineto
7 28 moveto
8 28 lineto
8 29 lineto
7 29 lineto
7 28 lineto
8 28 moveto
9 28 lineto
9 29 lineto
8 29 lineto
8 28 lineto
9 28 moveto
10 28 lineto
10 29 lineto
9 29 lineto
9 28 lineto
11 28 moveto
12 28 lineto
12 29 lineto
11 29 lineto
11 28 lineto
15 28 moveto
16 28 lineto
16 29 lineto
15 29 lineto
15 28 lineto
20 28 moveto
21 28 lineto
21 29 lineto
20 29 lineto
20 28 lineto
22 28 moveto
23 28 lineto
23 29 lineto
22 29 lineto
22 28 lineto
23 28 moveto
24 28 lineto
24 29 lineto
23 29 lineto
23 28 lineto
24 28 moveto
25 28 lineto
25 29 lineto
24 29 lineto
24 28 lineto
25 28 moveto
26 28 lineto
26 29 lineto
25 29 lineto
25 28 lineto
26 28 moveto
27 28 lineto
27 29 lineto
26 29 lineto
26 28 lineto
29 28 moveto
30 28 lineto
30 29 lineto
29 29 lineto
29 28 lineto
31 28 moveto
32 28 lineto
32 29 lineto
31 29 lineto
31 28 lineto
33 28 moveto
34 28 lineto
34 29 lineto
33 29 lineto
33 28 lineto
35 28 moveto
36 28 lineto
36 29 lineto
35 29 lineto
35 28 lineto
9 29 moveto
10 29 lineto
10 30 lineto
9 30 lineto
9 29 lineto
10 29 moveto
11 29 lineto
11 30 lineto
10 30 lineto
10 29 lineto
11 29 moveto
12 29 lineto
12 30 lineto
11 30 lineto
11 29 lineto
14 29 moveto
15 29 lineto
15 30 lineto
14 30 lineto
14 29 lineto
16 29 moveto
17 29 lineto
17 30 lineto
16 30 lineto
16 29 lineto
20 29 moveto
21 29 lineto
21 30 lineto
20 30 lineto
20 29 lineto
21 29 moveto
22 29 lineto
22 30 lineto
21 30 lineto
21 29 lineto
22 29 moveto
23 29 lineto
23 30 lineto
22 30 lineto
22 29 lineto
26 29 moveto
27 29 lineto
27 30 lineto
26 30 lineto
26 29 lineto
28 29 moveto
29 29 lineto
29 30 lineto
28 30 lineto
28 29 lineto
0 30 moveto
1 30 lineto
1 31 lineto
0 31 lineto
0 30 lineto
1 30 moveto
2 30 lineto
2 31 lineto
1 31 lineto
1 30 lineto
2 30 moveto
3 30 lineto
3 31 lineto
2 31 lineto
2 30 lineto
3 30 moveto
4 30 lineto
4 31 lineto
3 31 lineto
3 30 lineto
4 30 moveto
5 30 lineto
5 31 lineto
4 31 lineto
4 30 lineto
5 30 moveto
6 30 lineto
6 31 lineto
5 31 lineto
5 30 lineto
6 30 moveto
7 30 lineto
7 31 lineto
6 31 lineto
6 30 lineto
8 30 moveto
9 30 lineto
9 31 lineto
8 31 lineto
8 30 lineto
10 30 moveto
11 30 lineto
11 31 lineto
10 31 lineto
10 30 lineto
12 30 moveto
13 30 lineto
13 31 lineto
12 31 lineto
12 30 lineto
14 30 moveto
15 30 lineto
15 31 lineto
14 31 lineto
14 30 lineto
16 30 moveto
17 30 lineto
17 31 lineto
16 31 lineto
16 30 lineto
18 30 moveto
19 30 lineto
19 31 lineto
18 31 lineto
18 30 lineto
20 30 moveto
21 30 lineto
21 31 lineto
20 31 lineto
20 30 lineto
22 30 moveto
23 30 lineto
23 31 lineto
22 31 lineto
22 30 lineto
24 30 moveto
25 30 lineto
25 31 lineto
24 31 lineto
24 30 lineto
26 30 moveto
27 30 lineto
27 31 lineto
26 31 lineto
26 30 lineto
28 30 moveto
29 30 lineto
29 31 lineto
28 31 lineto
28 30 lineto
30 30 moveto
31 30 lineto
31 31 lineto
30 31 lineto
30 30 lineto
31 30 moveto
32 30 lineto
32 31 lineto
31 31 lineto
31 30 lineto
32 30 moveto
33 30 lineto
33 31 lineto
32 31 lineto
32 30 lineto
33 30 moveto
34 30 lineto
34 31 lineto
33 31 lineto
33 30 lineto
34 30 moveto
35 30 lineto
35 31 lineto
34 31 lineto
34 30 lineto
35 30 moveto
36 30 lineto
36 31 lineto
35 31 lineto
35 30 lineto
36 30 moveto
37 30 lineto
37 31 lineto
36 31 lineto
36 30 lineto
0 31 moveto
1 31 lineto
1 32 lineto
0 32 lineto
0 31 lineto
6 31 moveto
7 31 lineto
7 32 lineto
6 32 lineto
6 31 lineto
8 31 moveto
9 31 lineto
9 32 lineto
8 32 lineto
8 31 lineto
9 31 moveto
10 31 lineto
10 32 lineto
9 32 lineto
9 31 lineto
11 31 moveto
12 31 lineto
12 32 lineto
11 32 lineto
11 31 lineto
12 31 moveto
13 31 lineto
13 32 lineto
12 32 lineto
12 31 lineto
15 31 moveto
16 31 lineto
16 32 lineto
15 32 lineto
15 31 lineto
16 31 moveto
17 31 lineto
17 32 lineto
16 32 lineto
16 31 lineto
17 31 moveto
18 31 lineto
18 32 lineto
17 32 lineto
17 31 lineto
21 31 moveto
22 31 lineto
22 32 lineto
21 32 lineto
21 31 lineto
22 31 moveto
23 31 lineto
23 32 lineto
22 32 lineto
22 31 lineto
25 31 moveto
26 31 lineto
26 32 lineto
25 32 lineto
25 31 lineto
26 31 moveto
27 31 lineto
27 32 lineto
26 32 lineto
26 31 lineto
27 31 moveto
28 31 lineto
28 32 lineto
27 32 lineto
27 31 lineto
30 31 moveto
31 31 lineto
31 32 lineto
30 32 lineto
30 31 lineto
36 31 moveto
37 31 lineto
37 32 lineto
36 32 lineto
36 31 lineto
0 32 moveto
1 32 lineto
1 33 lineto
0 33 lineto
0 32 lineto
2 32 moveto
3 32 lineto
3 33 lineto
2 33 lineto
2 32 lineto
3 32 moveto
4 32 lineto
4 33 lineto
3 33 lineto
3 32 lineto
4 32 moveto
5 32 lineto
5 33 lineto
4 33 lineto
4 32 lineto
6 32 moveto
7 32 lineto
7 33 lineto
6 33 lineto
6 32 lineto
9 32 moveto
10 32 lineto
10 33 lineto
9 33 lineto
9 32 lineto
13 32 moveto
14 32 lineto
14 33 lineto
13 33 lineto
13 32 lineto
16 32 moveto
17 32 lineto
17 33 lineto
16 33 lineto
16 32 lineto
17 32 moveto
18 32 lineto
18 33 lineto
17 33 lineto
17 32 lineto
18 32 moveto
19 32 lineto
19 33 lineto
18 33 lineto
18 32 lineto
19 32 moveto
20 32 lineto
20 33 lineto
19 33 lineto
19 32 lineto
20 32 moveto
21 32 lineto
21 33 lineto
20 33 lineto
20 32 lineto
21 32 moveto
22 32 lineto
22 33 lineto
21 33 lineto
21 32 lineto
22 32 moveto
23 32 lineto
23 33 lineto
22 33 lineto
22 32 lineto
25 32 moveto
26 32 lineto
26 33 lineto
25 33 lineto
25 32 lineto
28 32 moveto
29 32 lineto
29 33 lineto
28 33 lineto
28 32 lineto
30 32 moveto
31 32 lineto
31 33 lineto
30 33 lineto
30 32 lineto
32 32 moveto
33 32 lineto
33 33 lineto
32 33 lineto
32 32 lineto
33 32 moveto
34 32 lineto
34 33 lineto
33 33 lineto
33 32 lineto
34 32 moveto
35 32 lineto
35 33 lineto
34 33 lineto
34 32 lineto
36 32 moveto
37 32 lineto
37 33 lineto
36 33 lineto
36 32 lineto
0 33 moveto
1 33 lineto
1 34 lineto
0 34 lineto
0 33 lineto
2 33 moveto
3 33 lineto
3 34 lineto
2 34 lineto
2 33 lineto
3 33 moveto
4 33 lineto
4 34 lineto
3 34 lineto
3 33 lineto
4 33 moveto
5 33 lineto
5 34 lineto
4 34 lineto
4 33 lineto
6 33 moveto
7 33 lineto
7 34 lineto
6 34 lineto
6 33 lineto
8 33 moveto
9 33 lineto
9 34 lineto
8 34 lineto
8 33 lineto
9 33 moveto
10 33 lineto
10 34 lineto
9 34 lineto
9 33 lineto
10 33 moveto
11 33 lineto
11 34 lineto
10 34 lineto
10 33 lineto
12 33 moveto
13 33 lineto
13 34 lineto
12 34 lineto
12 33 lineto
13 33 moveto
14 33 lineto
14 34 lineto
13 34 lineto
13 33 lineto
14 33 moveto
15 33 lineto
15 34 lineto
14 34 lineto
14 33 lineto
17 33 moveto
18 33 lineto
18 34 lineto
17 34 lineto
17 33 lineto
18 33 moveto
19 33 lineto
19 34 lineto
18 34 lineto
18 33 lineto
20 33 moveto
21 33 lineto
21 34 lineto
20 34 lineto
20 33 lineto
22 33 moveto
23 33 lineto
23 34 lineto
22 34 lineto
22 33 lineto
24 33 moveto
25 33 lineto
25 34 lineto
24 34 lineto
24 33 lineto
25 33 moveto
26 33 lineto
26 34 lineto
25 34 lineto
25 33 lineto
27 33 moveto
28 33 lineto
28 34 lineto
27 34 lineto
27 33 lineto
30 33 moveto
31 33 lineto
31 34 lineto
30 34 lineto
30 33 lineto
32 33 moveto
33 33 lineto
33 34 lineto
32 34 lineto
32 33 lineto
33 33 moveto
34 33 lineto
34 34 lineto
33 34 lineto
33 33 lineto
34 33 moveto
35 33 lineto
35 34 lineto
34 34 lineto
34 33 lineto
36 33 moveto
37 33 lineto
37 34 lineto
36 34 lineto
36 33 lineto
0 34 moveto
1 34 lineto
1 35 lineto
0 35 lineto
0 34 lineto
2 34 moveto
3 34 lineto
3 35 lineto
2 35 lineto
2 34 lineto
3 34 moveto
4 34 lineto
4 35 lineto
3 35 lineto
3 34 lineto
4 34 moveto
5 34 lineto
5 35 lineto
4 35 lineto
4 34 lineto
6 34 moveto
7 34 lineto
7 35 lineto
6 35 lineto
6 34 lineto
12 34 moveto
13 34 lineto
13 35 lineto
12 35 lineto
12 34 lineto
14 34 moveto
15 34 lineto
15 35 lineto
14 35 lineto
14 34 lineto
15 34 moveto
16 34 lineto
16 35 lineto
15 35 lineto
15 34 lineto
16 34 moveto
17 34 lineto
17 35 lineto
16 35 lineto
16 34 lineto
18 34 moveto
19 34 lineto
19 35 lineto
18 35 lineto
18 34 lineto
20 34 moveto
21 34 lineto
21 35 lineto
20 35 lineto
20 34 lineto
21 34 moveto
22 34 lineto
22 35 lineto
21 35 lineto
21 34 lineto
22 34 moveto
23 34 lineto
23 35 lineto
22 35 lineto
22 34 lineto
24 34 moveto
25 34 lineto
25 35 lineto
24 35 lineto
24 34 lineto
26 34 moveto
27 34 lineto
27 35 lineto
26 35 lineto
26 34 lineto
27 34 moveto
28 34 lineto
28 35 lineto
27 35 lineto
27 34 lineto
28 34 moveto
29 34 lineto
29 35 lineto
28 35 lineto
28 34 lineto
30 34 moveto
31 34 lineto
31 35 lineto
30 35 lineto
30 34 lineto
32 34 moveto
33 34 lineto
33 35 lineto
32 35 lineto
32 34 lineto
33 34 moveto
34 34 lineto
34 35 lineto
33 35 lineto
33 34 lineto
34 34 moveto
35 34 lineto
35 35 lineto
34 35 lineto
34 34 lineto
36 34 moveto
37 34 lineto
37 35 lineto
36 35 lineto
36 34 lineto
0 35 moveto
1 35 lineto
1 36 lineto
0 36 lineto
0 35 lineto
6 35 moveto
7 35 lineto
7 36 lineto
6 36 lineto
6 35 lineto
8 35 moveto
9 35 lineto
9 36 lineto
8 36 lineto
8 35 lineto
10 35 moveto
11 35 lineto
11 36 lineto
10 36 lineto
10 35 lineto
14 35 moveto
15 35 lineto
15 36 lineto
14 36 lineto
14 35 lineto
15 35 moveto
16 35 lineto
16 36 lineto
15 36 lineto
15 35 lineto
20 35 moveto
21 35 lineto
21 36 lineto
20 36 lineto
20 35 lineto
26 35 moveto
27 35 lineto
27 36 lineto
26 36 lineto
26 35 lineto
27 35 moveto
28 35 lineto
28 36 lineto
27 36 lineto
27 35 lineto
30 35 moveto
31 35 lineto
31 36 lineto
30 36 lineto
30 35 lineto
36 35 moveto
37 35 lineto
37 36 lineto
36 36 lineto
36 35 lineto
0 36 moveto
1 36 lineto
1 37 lineto
0 37 lineto
0 36 lineto
1 36 moveto
2 36 lineto
2 37 lineto
1 37 lineto
1 36 lineto
2 36 moveto
3 36 lineto
3 37 lineto
2 37 lineto
2 36 lineto
3 36 moveto
4 36 lineto
4 37 lineto
3 37 lineto
3 36 lineto
4 36 moveto
5 36 lineto
5 37 lineto
4 37 lineto
4 36 lineto
5 36 moveto
6 36 lineto
6 37 lineto
5 37 lineto
5 36 lineto
6 36 moveto
7 36 lineto
7 37 lineto
6 37 lineto
6 36 lineto
10 36 moveto
11 36 lineto
11 37 lineto
10 37 lineto
10 36 lineto
12 36 moveto
13 36 lineto
13 37 lineto
12 37 lineto
12 36 lineto
16 36 moveto
17 36 lineto
17 37 lineto
16 37 lineto
16 36 lineto
19 36 moveto
20 36 lineto
20 37 lineto
19 37 lineto
19 36 lineto
20 36 moveto
21 36 lineto
21 37 lineto
20 37 lineto
20 36 lineto
23 36 moveto
24 36 lineto
24 37 lineto
23 37 lineto
23 36 lineto
28 36 moveto
29 36 lineto
29 37 lineto
28 37 lineto
28 36 lineto
30 36 moveto
31 36 lineto
31 37 lineto
30 37 lineto
30 36 lineto
31 36 moveto
32 36 lineto
32 37 lineto
31 37 lineto
31 36 lineto
32 36 moveto
33 36 lineto
33 37 lineto
32 37 lineto
32 36 lineto
33 36 moveto
34 36 lineto
34 37 lineto
33 37 lineto
33 36 lineto
34 36 moveto
35 36 lineto
35 37 lineto
34 37 lineto
34 36 lineto
35 36 moveto
36 36 lineto
36 37 lineto
35 37 lineto
35 36 lineto
36 36 moveto
37 36 lineto
37 37 lineto
36 37 lineto
36 36 lineto
closepath
fill
%%EOF
